;HEADER
;Start_gcode
G21                     ; Set to metric [change to G20 if you want Imperial]
G90                     ; Force coordinates to be absolute relative to the origin
G28                     ; Home X/Y/Z axis
M117 Printing...
;ENDHEADER
;Layer # 
G0 X452.34 Y571.83 Z80.00 F5000 
G1 X452.34 Y571.83 Z6.00 F3000 
G1 X453.23 Y569.98 Z6.00 F3000 
G1 X453.76 Y569.54 Z6.00 F3000 
G1 X454.54 Y569.28 Z6.00 F3000 
G1 X460.16 Y568.94 Z6.00 F3000 
G1 X462.98 Y568.61 Z6.00 F3000 
G1 X463.99 Y568.26 Z6.00 F3000 
G1 X464.59 Y567.74 Z6.00 F3000 
G1 X464.70 Y567.02 Z6.00 F3000 
G1 X464.39 Y566.16 Z6.00 F3000 
G1 X462.96 Y564.31 Z6.00 F3000 
G1 X459.67 Y561.44 Z6.00 F3000 
G1 X459.24 Y560.90 Z6.00 F3000 
G1 X459.06 Y560.26 Z6.00 F3000 
G1 X459.56 Y558.04 Z6.00 F3000 
G1 X461.27 Y553.80 Z6.00 F3000 
G1 X464.37 Y548.06 Z6.00 F3000 
G1 X468.79 Y541.78 Z6.00 F3000 
G1 X473.58 Y536.09 Z6.00 F3000 
G1 X481.46 Y528.35 Z6.00 F3000 
G1 X487.47 Y522.08 Z6.00 F3000 
G1 X489.78 Y519.91 Z6.00 F3000 
G1 X490.94 Y519.14 Z6.00 F3000 
G1 X492.21 Y518.56 Z6.00 F3000 
G1 X493.64 Y518.17 Z6.00 F3000 
G1 X495.21 Y518.00 Z6.00 F3000 
G1 X496.84 Y518.06 Z6.00 F3000 
G1 X498.46 Y518.39 Z6.00 F3000 
G1 X500.03 Y519.00 Z6.00 F3000 
G1 X501.63 Y519.89 Z6.00 F3000 
G1 X515.48 Y529.58 Z6.00 F3000 
G1 X520.30 Y532.52 Z6.00 F3000 
G1 X522.49 Y533.54 Z6.00 F3000 
G1 X524.53 Y534.16 Z6.00 F3000 
G1 X526.41 Y534.32 Z6.00 F3000 
G1 X527.98 Y534.06 Z6.00 F3000 
G1 X529.04 Y533.42 Z6.00 F3000 
G1 X529.33 Y532.97 Z6.00 F3000 
G1 X529.43 Y532.44 Z6.00 F3000 
G1 X529.02 Y531.20 Z6.00 F3000 
G1 X527.97 Y529.81 Z6.00 F3000 
G1 X526.49 Y528.42 Z6.00 F3000 
G1 X524.80 Y527.15 Z6.00 F3000 
G1 X521.39 Y525.26 Z6.00 F3000 
G1 X518.21 Y523.81 Z6.00 F3000 
G1 X515.41 Y522.26 Z6.00 F3000 
G1 X512.73 Y520.43 Z6.00 F3000 
G1 X507.33 Y516.04 Z6.00 F3000 
G1 X505.29 Y513.86 Z6.00 F3000 
G1 X504.80 Y512.73 Z6.00 F3000 
G1 X504.84 Y511.49 Z6.00 F3000 
G1 X505.51 Y510.12 Z6.00 F3000 
G1 X506.73 Y508.62 Z6.00 F3000 
G1 X510.30 Y505.28 Z6.00 F3000 
G1 X518.76 Y497.87 Z6.00 F3000 
G1 X525.50 Y491.42 Z6.00 F3000 
G1 X527.12 Y490.24 Z6.00 F3000 
G1 X528.78 Y489.32 Z6.00 F3000 
G1 X530.50 Y488.71 Z6.00 F3000 
G1 X532.27 Y488.48 Z6.00 F3000 
G1 X534.11 Y488.66 Z6.00 F3000 
G1 X536.02 Y489.26 Z6.00 F3000 
G1 X538.01 Y490.27 Z6.00 F3000 
G1 X540.09 Y491.69 Z6.00 F3000 
G1 X544.50 Y495.56 Z6.00 F3000 
G1 X556.86 Y507.41 Z6.00 F3000 
G1 X559.72 Y510.47 Z6.00 F3000 
G1 X559.91 Y510.50 Z6.00 F3000 
G1 X560.02 Y509.38 Z6.00 F3000 
G1 X559.70 Y507.77 Z6.00 F3000 
G1 X559.04 Y505.71 Z6.00 F3000 
G1 X558.01 Y503.43 Z6.00 F3000 
G1 X556.62 Y501.10 Z6.00 F3000 
G1 X554.95 Y498.76 Z6.00 F3000 
G1 X547.55 Y489.68 Z6.00 F3000 
G1 X542.01 Y483.87 Z6.00 F3000 
G1 X541.68 Y482.68 Z6.00 F3000 
G1 X542.19 Y481.09 Z6.00 F3000 
G1 X543.67 Y478.92 Z6.00 F3000 
G1 X545.87 Y476.39 Z6.00 F3000 
G1 X548.42 Y473.86 Z6.00 F3000 
G1 X550.98 Y471.65 Z6.00 F3000 
G1 X553.27 Y470.00 Z6.00 F3000 
G1 X555.43 Y468.79 Z6.00 F3000 
G1 X566.64 Y464.31 Z6.00 F3000 
G1 X573.52 Y462.12 Z6.00 F3000 
G1 X576.66 Y461.52 Z6.00 F3000 
G1 X579.45 Y461.38 Z6.00 F3000 
G1 X581.84 Y461.80 Z6.00 F3000 
G1 X582.87 Y462.24 Z6.00 F3000 
G1 X583.79 Y462.85 Z6.00 F3000 
G1 X585.27 Y464.54 Z6.00 F3000 
G1 X586.36 Y466.59 Z6.00 F3000 
G1 X587.88 Y470.30 Z6.00 F3000 
G1 X588.52 Y471.28 Z6.00 F3000 
G1 X589.18 Y471.47 Z6.00 F3000 
G1 X589.91 Y470.81 Z6.00 F3000 
G1 X590.75 Y469.27 Z6.00 F3000 
G1 X594.23 Y460.93 Z6.00 F3000 
G1 X595.71 Y458.24 Z6.00 F3000 
G1 X597.35 Y456.21 Z6.00 F3000 
G1 X599.16 Y454.86 Z6.00 F3000 
G1 X601.15 Y454.08 Z6.00 F3000 
G1 X603.33 Y453.82 Z6.00 F3000 
G1 X605.71 Y453.97 Z6.00 F3000 
G1 X608.26 Y454.45 Z6.00 F3000 
G1 X613.72 Y456.06 Z6.00 F3000 
G1 X619.39 Y458.21 Z6.00 F3000 
G1 X622.20 Y459.63 Z6.00 F3000 
G1 X624.93 Y461.44 Z6.00 F3000 
G1 X627.54 Y463.68 Z6.00 F3000 
G1 X630.00 Y466.28 Z6.00 F3000 
G1 X632.29 Y469.13 Z6.00 F3000 
G1 X634.39 Y472.11 Z6.00 F3000 
G1 X636.26 Y475.14 Z6.00 F3000 
G1 X637.88 Y478.19 Z6.00 F3000 
G1 X639.21 Y481.29 Z6.00 F3000 
G1 X640.24 Y484.43 Z6.00 F3000 
G1 X640.94 Y487.65 Z6.00 F3000 
G1 X641.38 Y490.99 Z6.00 F3000 
G1 X641.83 Y498.21 Z6.00 F3000 
G1 X641.97 Y505.91 Z6.00 F3000 
G1 X641.68 Y509.19 Z6.00 F3000 
G1 X641.38 Y510.51 Z6.00 F3000 
G1 X640.95 Y511.55 Z6.00 F3000 
G1 X640.39 Y512.28 Z6.00 F3000 
G1 X639.70 Y512.71 Z6.00 F3000 
G1 X638.92 Y512.87 Z6.00 F3000 
G1 X638.06 Y512.79 Z6.00 F3000 
G1 X636.21 Y512.02 Z6.00 F3000 
G1 X634.34 Y510.63 Z6.00 F3000 
G1 X632.63 Y508.87 Z6.00 F3000 
G1 X629.94 Y505.22 Z6.00 F3000 
G1 X631.12 Y507.30 Z6.00 F3000 
G1 X633.41 Y512.19 Z6.00 F3000 
G1 X634.42 Y515.06 Z6.00 F3000 
G1 X635.15 Y517.99 Z6.00 F3000 
G1 X635.52 Y520.88 Z6.00 F3000 
G1 X635.43 Y523.59 Z6.00 F3000 
G1 X634.83 Y526.04 Z6.00 F3000 
G1 X633.79 Y528.28 Z6.00 F3000 
G1 X632.42 Y530.38 Z6.00 F3000 
G1 X630.82 Y532.42 Z6.00 F3000 
G1 X627.35 Y536.28 Z6.00 F3000 
G1 X625.63 Y537.74 Z6.00 F3000 
G1 X624.01 Y538.62 Z6.00 F3000 
G1 X623.27 Y538.79 Z6.00 F3000 
G1 X622.55 Y538.75 Z6.00 F3000 
G1 X621.85 Y538.50 Z6.00 F3000 
G1 X621.14 Y538.01 Z6.00 F3000 
G1 X619.67 Y536.30 Z6.00 F3000 
G1 X617.99 Y533.52 Z6.00 F3000 
G1 X613.96 Y525.26 Z6.00 F3000 
G1 X610.14 Y516.90 Z6.00 F3000 
G1 X607.62 Y511.91 Z6.00 F3000 
G1 X605.79 Y509.34 Z6.00 F3000 
G1 X604.83 Y508.40 Z6.00 F3000 
G1 X603.85 Y507.75 Z6.00 F3000 
G1 X602.91 Y507.59 Z6.00 F3000 
G1 X602.10 Y508.13 Z6.00 F3000 
G1 X601.47 Y509.51 Z6.00 F3000 
G1 X601.09 Y511.59 Z6.00 F3000 
G1 X601.02 Y514.17 Z6.00 F3000 
G1 X601.32 Y517.06 Z6.00 F3000 
G1 X602.03 Y520.06 Z6.00 F3000 
G1 X603.07 Y523.11 Z6.00 F3000 
G1 X605.67 Y529.02 Z6.00 F3000 
G1 X610.31 Y538.61 Z6.00 F3000 
G1 X610.85 Y540.39 Z6.00 F3000 
G1 X610.90 Y541.26 Z6.00 F3000 
G1 X610.74 Y542.16 Z6.00 F3000 
G1 X610.33 Y543.13 Z6.00 F3000 
G1 X609.62 Y544.21 Z6.00 F3000 
G1 X607.17 Y546.84 Z6.00 F3000 
G1 X603.18 Y550.22 Z6.00 F3000 
G1 X598.16 Y554.04 Z6.00 F3000 
G1 X587.62 Y561.37 Z6.00 F3000 
G1 X579.72 Y566.24 Z6.00 F3000 
G1 X571.19 Y571.11 Z6.00 F3000 
G1 X569.95 Y571.54 Z6.00 F3000 
G1 X568.89 Y571.43 Z6.00 F3000 
G1 X567.92 Y570.74 Z6.00 F3000 
G1 X567.05 Y569.60 Z6.00 F3000 
G1 X564.44 Y564.69 Z6.00 F3000 
G1 X563.86 Y564.25 Z6.00 F3000 
G1 X563.20 Y564.44 Z6.00 F3000 
G1 X562.41 Y565.33 Z6.00 F3000 
G1 X561.60 Y566.78 Z6.00 F3000 
G1 X560.86 Y568.56 Z6.00 F3000 
G1 X560.30 Y570.46 Z6.00 F3000 
G1 X559.56 Y574.11 Z6.00 F3000 
G1 X558.76 Y575.91 Z6.00 F3000 
G1 X557.22 Y577.75 Z6.00 F3000 
G1 X554.73 Y579.62 Z6.00 F3000 
G1 X551.61 Y581.17 Z6.00 F3000 
G1 X549.96 Y581.70 Z6.00 F3000 
G1 X548.33 Y582.00 Z6.00 F3000 
G1 X546.78 Y582.02 Z6.00 F3000 
G1 X545.37 Y581.71 Z6.00 F3000 
G1 X544.13 Y581.04 Z6.00 F3000 
G1 X543.07 Y580.09 Z6.00 F3000 
G1 X541.33 Y577.75 Z6.00 F3000 
G1 X539.32 Y574.69 Z6.00 F3000 
G1 X538.69 Y574.20 Z6.00 F3000 
G1 X538.05 Y574.11 Z6.00 F3000 
G1 X537.39 Y574.39 Z6.00 F3000 
G1 X536.08 Y575.78 Z6.00 F3000 
G1 X531.66 Y583.78 Z6.00 F3000 
G1 X530.48 Y585.34 Z6.00 F3000 
G1 X528.92 Y586.83 Z6.00 F3000 
G1 X526.84 Y588.35 Z6.00 F3000 
G1 X524.27 Y589.84 Z6.00 F3000 
G1 X521.30 Y591.24 Z6.00 F3000 
G1 X518.00 Y592.47 Z6.00 F3000 
G1 X510.77 Y594.34 Z6.00 F3000 
G1 X503.60 Y595.81 Z6.00 F3000 
G1 X497.21 Y597.41 Z6.00 F3000 
G1 X494.12 Y598.46 Z6.00 F3000 
G1 X490.92 Y599.79 Z6.00 F3000 
G1 X480.48 Y604.81 Z6.00 F3000 
G1 X477.09 Y606.08 Z6.00 F3000 
G1 X473.92 Y606.79 Z6.00 F3000 
G1 X471.00 Y607.00 Z6.00 F3000 
G1 X468.30 Y606.84 Z6.00 F3000 
G1 X465.80 Y606.41 Z6.00 F3000 
G1 X463.51 Y605.81 Z6.00 F3000 
G1 X461.44 Y605.02 Z6.00 F3000 
G1 X459.65 Y604.01 Z6.00 F3000 
G1 X458.17 Y602.72 Z6.00 F3000 
G1 X457.01 Y601.14 Z6.00 F3000 
G1 X454.29 Y595.63 Z6.00 F3000 
G1 X451.08 Y590.35 Z6.00 F3000 
G1 X450.24 Y588.48 Z6.00 F3000 
G1 X449.72 Y586.45 Z6.00 F3000 
G1 X449.50 Y584.28 Z6.00 F3000 
G1 X449.57 Y582.03 Z6.00 F3000 
G1 X449.88 Y579.74 Z6.00 F3000 
G1 X451.06 Y575.30 Z6.00 F3000 
G1 X452.34 Y571.83 Z6.00 F3000 
G0 X452.34 Y571.83 Z80.00 F5000 
G0 X469.46 Y578.18 Z80.00 F5000 
G1 X469.46 Y578.18 Z6.00 F3000 
G1 X507.73 Y557.65 Z6.00 F3000 
G1 X522.04 Y549.67 Z6.00 F3000 
G1 X533.74 Y542.89 Z6.00 F3000 
G1 X543.28 Y537.11 Z6.00 F3000 
G1 X551.11 Y532.09 Z6.00 F3000 
G1 X557.68 Y527.60 Z6.00 F3000 
G1 X563.44 Y523.43 Z6.00 F3000 
G1 X573.93 Y515.31 Z6.00 F3000 
G1 X584.10 Y506.90 Z6.00 F3000 
G1 X607.91 Y486.69 Z6.00 F3000 
G1 X661.81 Y441.91 Z6.00 F3000 
G1 X683.57 Y423.29 Z6.00 F3000 
G0 X683.57 Y423.29 Z80.00 F5000 
G0 X596.35 Y233.78 Z80.00 F5000 
G1 X596.35 Y233.78 Z6.00 F3000 
G1 X582.98 Y220.84 Z6.00 F3000 
G1 X570.98 Y210.16 Z6.00 F3000 
G1 X560.21 Y201.43 Z6.00 F3000 
G1 X550.55 Y194.37 Z6.00 F3000 
G1 X541.87 Y188.70 Z6.00 F3000 
G1 X534.05 Y184.14 Z6.00 F3000 
G1 X520.47 Y177.16 Z6.00 F3000 
G1 X508.80 Y171.53 Z6.00 F3000 
G1 X498.14 Y166.72 Z6.00 F3000 
G1 X487.59 Y162.58 Z6.00 F3000 
G1 X476.26 Y158.97 Z6.00 F3000 
G1 X469.92 Y157.41 Z6.00 F3000 
G1 X466.35 Y156.83 Z6.00 F3000 
G1 X462.38 Y156.47 Z6.00 F3000 
G1 X457.92 Y156.41 Z6.00 F3000 
G1 X452.88 Y156.72 Z6.00 F3000 
G1 X447.15 Y157.44 Z6.00 F3000 
G1 X440.63 Y158.67 Z6.00 F3000 
G1 X433.24 Y160.46 Z6.00 F3000 
G1 X424.88 Y162.88 Z6.00 F3000 
G1 X415.44 Y165.99 Z6.00 F3000 
G1 X404.83 Y169.87 Z6.00 F3000 
G1 X392.96 Y174.59 Z6.00 F3000 
G1 X379.73 Y180.21 Z6.00 F3000 
G1 X365.03 Y186.79 Z6.00 F3000 
G1 X348.78 Y194.41 Z6.00 F3000 
G0 X348.78 Y194.41 Z80.00 F5000 
G0 X607.75 Y239.81 Z80.00 F5000 
G1 X607.75 Y239.81 Z6.00 F3000 
G1 X607.17 Y242.55 Z6.00 F3000 
G1 X606.68 Y243.43 Z6.00 F3000 
G1 X605.97 Y244.05 Z6.00 F3000 
G1 X603.78 Y244.81 Z6.00 F3000 
G1 X596.82 Y246.33 Z6.00 F3000 
G1 X595.55 Y246.34 Z6.00 F3000 
G1 X594.35 Y246.01 Z6.00 F3000 
G1 X593.07 Y245.19 Z6.00 F3000 
G1 X591.53 Y243.74 Z6.00 F3000 
G1 X578.03 Y227.33 Z6.00 F3000 
G1 X575.26 Y224.33 Z6.00 F3000 
G1 X572.71 Y222.04 Z6.00 F3000 
G1 X570.28 Y220.50 Z6.00 F3000 
G1 X569.08 Y220.04 Z6.00 F3000 
G1 X567.89 Y219.79 Z6.00 F3000 
G1 X566.69 Y219.76 Z6.00 F3000 
G1 X565.53 Y219.96 Z6.00 F3000 
G1 X564.47 Y220.39 Z6.00 F3000 
G1 X563.57 Y221.05 Z6.00 F3000 
G1 X562.87 Y221.95 Z6.00 F3000 
G1 X562.43 Y223.09 Z6.00 F3000 
G1 X562.31 Y224.46 Z6.00 F3000 
G1 X562.55 Y226.09 Z6.00 F3000 
G1 X563.20 Y227.95 Z6.00 F3000 
G1 X564.21 Y229.99 Z6.00 F3000 
G1 X567.02 Y234.41 Z6.00 F3000 
G1 X570.44 Y238.85 Z6.00 F3000 
G1 X573.90 Y242.83 Z6.00 F3000 
G1 X581.53 Y250.44 Z6.00 F3000 
G1 X582.99 Y252.22 Z6.00 F3000 
G1 X583.89 Y253.97 Z6.00 F3000 
G1 X584.22 Y255.68 Z6.00 F3000 
G1 X583.98 Y257.26 Z6.00 F3000 
G1 X583.19 Y258.64 Z6.00 F3000 
G1 X581.86 Y259.76 Z6.00 F3000 
G1 X580.06 Y260.58 Z6.00 F3000 
G1 X577.89 Y261.09 Z6.00 F3000 
G1 X575.43 Y261.26 Z6.00 F3000 
G1 X572.75 Y261.04 Z6.00 F3000 
G1 X569.83 Y260.28 Z6.00 F3000 
G1 X566.63 Y258.78 Z6.00 F3000 
G1 X563.10 Y256.35 Z6.00 F3000 
G1 X559.26 Y252.88 Z6.00 F3000 
G1 X555.38 Y248.63 Z6.00 F3000 
G1 X551.78 Y243.91 Z6.00 F3000 
G1 X548.80 Y239.07 Z6.00 F3000 
G1 X546.66 Y234.34 Z6.00 F3000 
G1 X545.14 Y229.69 Z6.00 F3000 
G1 X542.75 Y220.12 Z6.00 F3000 
G1 X541.31 Y215.03 Z6.00 F3000 
G1 X539.58 Y209.98 Z6.00 F3000 
G1 X537.60 Y205.30 Z6.00 F3000 
G1 X535.39 Y201.33 Z6.00 F3000 
G1 X533.00 Y198.34 Z6.00 F3000 
G1 X530.54 Y196.30 Z6.00 F3000 
G1 X528.15 Y195.14 Z6.00 F3000 
G1 X525.99 Y194.77 Z6.00 F3000 
G1 X524.16 Y195.12 Z6.00 F3000 
G1 X522.66 Y196.12 Z6.00 F3000 
G1 X521.47 Y197.74 Z6.00 F3000 
G1 X520.54 Y199.91 Z6.00 F3000 
G1 X519.87 Y202.60 Z6.00 F3000 
G1 X519.50 Y205.68 Z6.00 F3000 
G1 X519.49 Y209.03 Z6.00 F3000 
G1 X519.91 Y212.55 Z6.00 F3000 
G1 X520.77 Y216.12 Z6.00 F3000 
G1 X522.01 Y219.66 Z6.00 F3000 
G1 X523.50 Y223.07 Z6.00 F3000 
G1 X526.84 Y229.21 Z6.00 F3000 
G1 X528.63 Y231.90 Z6.00 F3000 
G1 X530.56 Y234.35 Z6.00 F3000 
G1 X532.70 Y236.60 Z6.00 F3000 
G1 X537.56 Y240.63 Z6.00 F3000 
G1 X542.55 Y244.43 Z6.00 F3000 
G1 X550.79 Y251.60 Z6.00 F3000 
G1 X556.80 Y255.84 Z6.00 F3000 
G1 X557.75 Y256.82 Z6.00 F3000 
G1 X558.38 Y257.80 Z6.00 F3000 
G1 X558.61 Y258.71 Z6.00 F3000 
G1 X558.36 Y259.48 Z6.00 F3000 
G1 X557.58 Y260.07 Z6.00 F3000 
G1 X556.37 Y260.51 Z6.00 F3000 
G1 X549.31 Y262.23 Z6.00 F3000 
G1 X544.88 Y262.87 Z6.00 F3000 
G1 X542.37 Y262.88 Z6.00 F3000 
G1 X539.78 Y262.56 Z6.00 F3000 
G1 X537.26 Y261.84 Z6.00 F3000 
G1 X534.94 Y260.62 Z6.00 F3000 
G1 X532.94 Y258.86 Z6.00 F3000 
G1 X531.18 Y256.66 Z6.00 F3000 
G1 X524.31 Y246.18 Z6.00 F3000 
G1 X520.66 Y241.33 Z6.00 F3000 
G1 X514.25 Y233.39 Z6.00 F3000 
G1 X511.56 Y229.07 Z6.00 F3000 
G1 X509.02 Y224.01 Z6.00 F3000 
G1 X506.48 Y218.15 Z6.00 F3000 
G1 X502.08 Y206.17 Z6.00 F3000 
G1 X499.84 Y200.72 Z6.00 F3000 
G1 X498.46 Y198.17 Z6.00 F3000 
G1 X496.97 Y195.87 Z6.00 F3000 
G1 X495.42 Y193.95 Z6.00 F3000 
G1 X493.91 Y192.54 Z6.00 F3000 
G1 X492.50 Y191.77 Z6.00 F3000 
G1 X491.24 Y191.58 Z6.00 F3000 
G1 X490.15 Y191.91 Z6.00 F3000 
G1 X489.28 Y192.70 Z6.00 F3000 
G1 X488.64 Y193.89 Z6.00 F3000 
G1 X488.23 Y195.48 Z6.00 F3000 
G1 X488.07 Y197.47 Z6.00 F3000 
G1 X488.15 Y199.88 Z6.00 F3000 
G1 X488.92 Y205.84 Z6.00 F3000 
G1 X491.29 Y219.46 Z6.00 F3000 
G1 X492.78 Y226.06 Z6.00 F3000 
G1 X493.77 Y229.22 Z6.00 F3000 
G1 X494.94 Y232.24 Z6.00 F3000 
G1 X496.28 Y235.09 Z6.00 F3000 
G1 X497.78 Y237.73 Z6.00 F3000 
G1 X499.44 Y240.14 Z6.00 F3000 
G1 X501.19 Y242.32 Z6.00 F3000 
G1 X504.80 Y245.99 Z6.00 F3000 
G1 X508.21 Y248.78 Z6.00 F3000 
G1 X512.93 Y252.31 Z6.00 F3000 
G1 X513.25 Y252.97 Z6.00 F3000 
G1 X512.99 Y253.66 Z6.00 F3000 
G1 X512.11 Y254.40 Z6.00 F3000 
G1 X510.71 Y255.11 Z6.00 F3000 
G1 X508.97 Y255.68 Z6.00 F3000 
G1 X507.06 Y256.00 Z6.00 F3000 
G1 X505.12 Y255.98 Z6.00 F3000 
G1 X498.12 Y254.93 Z6.00 F3000 
G1 X488.28 Y253.85 Z6.00 F3000 
G1 X484.96 Y253.22 Z6.00 F3000 
G1 X481.90 Y252.30 Z6.00 F3000 
G1 X479.09 Y250.98 Z6.00 F3000 
G1 X476.46 Y249.15 Z6.00 F3000 
G1 X473.96 Y246.72 Z6.00 F3000 
G1 X471.54 Y243.61 Z6.00 F3000 
G1 X469.28 Y239.93 Z6.00 F3000 
G1 X467.27 Y235.79 Z6.00 F3000 
G1 X465.61 Y231.33 Z6.00 F3000 
G1 X464.35 Y226.67 Z6.00 F3000 
G1 X463.46 Y221.94 Z6.00 F3000 
G1 X462.41 Y212.75 Z6.00 F3000 
G1 X461.26 Y190.22 Z6.00 F3000 
G1 X460.97 Y187.30 Z6.00 F3000 
G1 X460.55 Y184.87 Z6.00 F3000 
G1 X459.95 Y183.05 Z6.00 F3000 
G1 X459.20 Y181.76 Z6.00 F3000 
G1 X458.30 Y180.89 Z6.00 F3000 
G1 X457.28 Y180.31 Z6.00 F3000 
G1 X456.15 Y179.95 Z6.00 F3000 
G1 X454.97 Y179.96 Z6.00 F3000 
G1 X453.77 Y180.48 Z6.00 F3000 
G1 X452.60 Y181.69 Z6.00 F3000 
G1 X451.50 Y183.71 Z6.00 F3000 
G1 X450.50 Y186.41 Z6.00 F3000 
G1 X449.61 Y189.61 Z6.00 F3000 
G1 X448.22 Y196.85 Z6.00 F3000 
G1 X447.80 Y200.64 Z6.00 F3000 
G1 X447.64 Y204.44 Z6.00 F3000 
G1 X447.80 Y208.17 Z6.00 F3000 
G1 X448.30 Y211.80 Z6.00 F3000 
G1 X450.95 Y222.96 Z6.00 F3000 
G1 X452.64 Y231.10 Z6.00 F3000 
G1 X453.60 Y237.72 Z6.00 F3000 
G1 X453.64 Y239.68 Z6.00 F3000 
G1 X453.33 Y240.70 Z6.00 F3000 
G1 X453.02 Y240.90 Z6.00 F3000 
G1 X452.61 Y240.91 Z6.00 F3000 
G1 X451.41 Y240.43 Z6.00 F3000 
G1 X447.56 Y237.77 Z6.00 F3000 
G1 X442.08 Y233.22 Z6.00 F3000 
G1 X435.66 Y227.17 Z6.00 F3000 
G1 X432.57 Y223.73 Z6.00 F3000 
G1 X429.86 Y220.10 Z6.00 F3000 
G1 X427.71 Y216.35 Z6.00 F3000 
G1 X426.12 Y212.59 Z6.00 F3000 
G1 X425.03 Y208.93 Z6.00 F3000 
G1 X424.42 Y205.49 Z6.00 F3000 
G1 X424.22 Y202.35 Z6.00 F3000 
G1 X424.40 Y199.43 Z6.00 F3000 
G1 X424.92 Y196.65 Z6.00 F3000 
G1 X425.73 Y193.89 Z6.00 F3000 
G1 X430.24 Y182.70 Z6.00 F3000 
G1 X431.72 Y177.62 Z6.00 F3000 
G1 X432.11 Y175.37 Z6.00 F3000 
G1 X432.26 Y173.35 Z6.00 F3000 
G1 X432.18 Y171.61 Z6.00 F3000 
G1 X431.86 Y170.10 Z6.00 F3000 
G1 X431.34 Y168.81 Z6.00 F3000 
G1 X430.61 Y167.68 Z6.00 F3000 
G1 X429.71 Y166.70 Z6.00 F3000 
G1 X428.69 Y165.89 Z6.00 F3000 
G1 X427.64 Y165.29 Z6.00 F3000 
G1 X426.62 Y164.95 Z6.00 F3000 
G1 X425.70 Y164.93 Z6.00 F3000 
G1 X424.92 Y165.33 Z6.00 F3000 
G1 X424.30 Y166.29 Z6.00 F3000 
G1 X423.87 Y167.91 Z6.00 F3000 
G1 X423.33 Y178.90 Z6.00 F3000 
G1 X422.69 Y183.38 Z6.00 F3000 
G1 X421.65 Y186.57 Z6.00 F3000 
G1 X420.37 Y188.83 Z6.00 F3000 
G1 X419.66 Y189.46 Z6.00 F3000 
G1 X418.91 Y189.64 Z6.00 F3000 
G1 X418.11 Y189.31 Z6.00 F3000 
G1 X417.27 Y188.50 Z6.00 F3000 
G1 X415.46 Y185.68 Z6.00 F3000 
G1 X413.50 Y181.63 Z6.00 F3000 
G1 X411.61 Y176.66 Z6.00 F3000 
G1 X409.83 Y171.17 Z6.00 F3000 
G1 X408.73 Y168.48 Z6.00 F3000 
G1 X407.30 Y165.99 Z6.00 F3000 
G1 X405.46 Y163.78 Z6.00 F3000 
G1 X403.31 Y161.82 Z6.00 F3000 
G1 X394.89 Y155.52 Z6.00 F3000 
G1 X393.48 Y154.20 Z6.00 F3000 
G1 X392.58 Y153.00 Z6.00 F3000 
G1 X392.26 Y151.90 Z6.00 F3000 
G1 X392.48 Y150.88 Z6.00 F3000 
G1 X393.21 Y149.88 Z6.00 F3000 
G1 X394.40 Y148.87 Z6.00 F3000 
G1 X397.84 Y146.72 Z6.00 F3000 
G1 X402.01 Y144.68 Z6.00 F3000 
G1 X406.17 Y143.11 Z6.00 F3000 
G1 X408.20 Y142.60 Z6.00 F3000 
G1 X410.22 Y142.32 Z6.00 F3000 
G1 X414.25 Y142.46 Z6.00 F3000 
G1 X418.34 Y142.99 Z6.00 F3000 
G1 X422.45 Y143.31 Z6.00 F3000 
G1 X426.04 Y143.19 Z6.00 F3000 
G1 X427.44 Y142.93 Z6.00 F3000 
G1 X428.49 Y142.44 Z6.00 F3000 
G1 X429.13 Y141.64 Z6.00 F3000 
G1 X429.30 Y140.45 Z6.00 F3000 
G1 X428.97 Y138.82 Z6.00 F3000 
G1 X428.24 Y136.83 Z6.00 F3000 
G1 X423.84 Y127.45 Z6.00 F3000 
G1 X421.82 Y122.74 Z6.00 F3000 
G1 X420.41 Y118.21 Z6.00 F3000 
G1 X420.10 Y116.04 Z6.00 F3000 
G1 X420.15 Y113.97 Z6.00 F3000 
G1 X420.59 Y111.98 Z6.00 F3000 
G1 X421.89 Y108.08 Z6.00 F3000 
G1 X422.30 Y106.07 Z6.00 F3000 
G1 X422.34 Y103.96 Z6.00 F3000 
G1 X422.03 Y99.12 Z6.00 F3000 
G1 X422.17 Y96.26 Z6.00 F3000 
G1 X422.79 Y93.07 Z6.00 F3000 
G1 X423.92 Y89.76 Z6.00 F3000 
G1 X425.54 Y86.60 Z6.00 F3000 
G1 X427.61 Y83.86 Z6.00 F3000 
G1 X430.10 Y81.72 Z6.00 F3000 
G1 X438.79 Y76.50 Z6.00 F3000 
G1 X441.67 Y74.27 Z6.00 F3000 
G1 X447.35 Y69.26 Z6.00 F3000 
G1 X450.30 Y66.98 Z6.00 F3000 
G1 X453.38 Y65.10 Z6.00 F3000 
G1 X456.53 Y63.64 Z6.00 F3000 
G1 X459.64 Y62.55 Z6.00 F3000 
G1 X462.63 Y61.78 Z6.00 F3000 
G1 X467.96 Y60.97 Z6.00 F3000 
G1 X472.53 Y60.74 Z6.00 F3000 
G1 X476.30 Y60.75 Z6.00 F3000 
G1 X477.59 Y60.98 Z6.00 F3000 
G1 X478.29 Y61.46 Z6.00 F3000 
G1 X478.30 Y62.28 Z6.00 F3000 
G1 X475.52 Y67.17 Z6.00 F3000 
G1 X472.71 Y72.78 Z6.00 F3000 
G1 X469.49 Y80.15 Z6.00 F3000 
G1 X466.01 Y88.66 Z6.00 F3000 
G1 X463.34 Y96.29 Z6.00 F3000 
G1 X462.70 Y99.07 Z6.00 F3000 
G1 X462.63 Y100.91 Z6.00 F3000 
G1 X462.82 Y101.44 Z6.00 F3000 
G1 X463.19 Y101.69 Z6.00 F3000 
G1 X463.72 Y101.63 Z6.00 F3000 
G1 X464.43 Y101.26 Z6.00 F3000 
G1 X466.36 Y99.59 Z6.00 F3000 
G1 X468.74 Y96.94 Z6.00 F3000 
G1 X471.30 Y93.70 Z6.00 F3000 
G1 X473.77 Y90.23 Z6.00 F3000 
G1 X479.83 Y80.64 Z6.00 F3000 
G1 X481.90 Y77.96 Z6.00 F3000 
G1 X484.23 Y75.64 Z6.00 F3000 
G1 X486.72 Y73.70 Z6.00 F3000 
G1 X489.19 Y72.15 Z6.00 F3000 
G1 X491.48 Y71.02 Z6.00 F3000 
G1 X493.48 Y70.30 Z6.00 F3000 
G1 X495.26 Y69.94 Z6.00 F3000 
G1 X498.60 Y69.96 Z6.00 F3000 
G1 X502.25 Y70.53 Z6.00 F3000 
G1 X506.20 Y71.47 Z6.00 F3000 
G1 X510.33 Y72.82 Z6.00 F3000 
G1 X512.51 Y73.80 Z6.00 F3000 
G1 X514.81 Y75.11 Z6.00 F3000 
G1 X519.59 Y78.62 Z6.00 F3000 
G1 X524.57 Y83.01 Z6.00 F3000 
G1 X525.03 Y83.78 Z6.00 F3000 
G1 X524.78 Y84.42 Z6.00 F3000 
G1 X523.77 Y85.12 Z6.00 F3000 
G1 X519.55 Y87.13 Z6.00 F3000 
G1 X505.80 Y92.56 Z6.00 F3000 
G1 X502.11 Y94.23 Z6.00 F3000 
G1 X498.62 Y96.17 Z6.00 F3000 
G1 X495.48 Y98.41 Z6.00 F3000 
G1 X492.74 Y100.88 Z6.00 F3000 
G1 X490.43 Y103.48 Z6.00 F3000 
G1 X488.57 Y106.10 Z6.00 F3000 
G1 X487.19 Y108.62 Z6.00 F3000 
G1 X486.25 Y110.99 Z6.00 F3000 
G1 X485.69 Y113.16 Z6.00 F3000 
G1 X485.46 Y115.05 Z6.00 F3000 
G1 X485.53 Y116.61 Z6.00 F3000 
G1 X485.91 Y117.80 Z6.00 F3000 
G1 X486.62 Y118.57 Z6.00 F3000 
G1 X487.70 Y118.86 Z6.00 F3000 
G1 X489.16 Y118.66 Z6.00 F3000 
G1 X490.94 Y117.97 Z6.00 F3000 
G1 X492.97 Y116.82 Z6.00 F3000 
G1 X495.18 Y115.26 Z6.00 F3000 
G1 X506.36 Y105.64 Z6.00 F3000 
G1 X514.26 Y99.76 Z6.00 F3000 
G1 X518.16 Y97.26 Z6.00 F3000 
G1 X521.57 Y95.44 Z6.00 F3000 
G1 X524.24 Y94.52 Z6.00 F3000 
G1 X526.37 Y94.43 Z6.00 F3000 
G1 X528.28 Y94.99 Z6.00 F3000 
G1 X530.29 Y96.05 Z6.00 F3000 
G1 X535.23 Y99.14 Z6.00 F3000 
G1 X540.48 Y102.94 Z6.00 F3000 
G1 X544.96 Y106.93 Z6.00 F3000 
G1 X548.58 Y111.08 Z6.00 F3000 
G1 X551.38 Y115.34 Z6.00 F3000 
G1 X552.32 Y117.31 Z6.00 F3000 
G1 X552.85 Y119.02 Z6.00 F3000 
G1 X552.89 Y120.40 Z6.00 F3000 
G1 X552.43 Y121.40 Z6.00 F3000 
G1 X551.45 Y122.02 Z6.00 F3000 
G1 X549.96 Y122.23 Z6.00 F3000 
G1 X547.96 Y122.04 Z6.00 F3000 
G1 X540.29 Y120.57 Z6.00 F3000 
G1 X537.64 Y120.28 Z6.00 F3000 
G1 X535.01 Y120.21 Z6.00 F3000 
G1 X529.64 Y120.65 Z6.00 F3000 
G1 X523.99 Y121.83 Z6.00 F3000 
G1 X518.43 Y123.66 Z6.00 F3000 
G1 X513.43 Y126.03 Z6.00 F3000 
G1 X509.19 Y128.74 Z6.00 F3000 
G1 X507.44 Y130.15 Z6.00 F3000 
G1 X506.09 Y131.63 Z6.00 F3000 
G1 X505.32 Y133.24 Z6.00 F3000 
G1 X505.22 Y134.10 Z6.00 F3000 
G1 X505.33 Y135.01 Z6.00 F3000 
G1 X506.21 Y136.95 Z6.00 F3000 
G1 X507.83 Y138.79 Z6.00 F3000 
G1 X510.00 Y140.23 Z6.00 F3000 
G1 X511.22 Y140.69 Z6.00 F3000 
G1 X512.50 Y140.93 Z6.00 F3000 
G1 X513.82 Y140.92 Z6.00 F3000 
G1 X515.17 Y140.70 Z6.00 F3000 
G1 X517.95 Y139.72 Z6.00 F3000 
G1 X523.75 Y136.75 Z6.00 F3000 
G1 X529.70 Y134.01 Z6.00 F3000 
G1 X540.79 Y129.84 Z6.00 F3000 
G1 X545.47 Y128.36 Z6.00 F3000 
G1 X549.50 Y127.44 Z6.00 F3000 
G1 X553.31 Y127.12 Z6.00 F3000 
G1 X555.30 Y127.23 Z6.00 F3000 
G1 X557.55 Y127.79 Z6.00 F3000 
G1 X560.24 Y129.09 Z6.00 F3000 
G1 X563.57 Y131.42 Z6.00 F3000 
G1 X567.59 Y134.94 Z6.00 F3000 
G1 X571.90 Y139.19 Z6.00 F3000 
G1 X575.96 Y143.56 Z6.00 F3000 
G1 X579.25 Y147.45 Z6.00 F3000 
G1 X581.35 Y150.41 Z6.00 F3000 
G1 X582.38 Y152.54 Z6.00 F3000 
G1 X582.54 Y154.11 Z6.00 F3000 
G1 X582.08 Y155.38 Z6.00 F3000 
G1 X581.17 Y156.54 Z6.00 F3000 
G1 X579.88 Y157.51 Z6.00 F3000 
G1 X578.19 Y158.14 Z6.00 F3000 
G1 X576.14 Y158.26 Z6.00 F3000 
G1 X573.74 Y157.80 Z6.00 F3000 
G1 X571.02 Y156.89 Z6.00 F3000 
G1 X564.89 Y154.46 Z6.00 F3000 
G1 X558.18 Y152.32 Z6.00 F3000 
G1 X554.78 Y151.53 Z6.00 F3000 
G1 X551.43 Y150.99 Z6.00 F3000 
G1 X548.21 Y150.72 Z6.00 F3000 
G1 X545.11 Y150.70 Z6.00 F3000 
G1 X539.36 Y151.16 Z6.00 F3000 
G1 X534.25 Y152.03 Z6.00 F3000 
G1 X530.05 Y153.18 Z6.00 F3000 
G1 X528.37 Y153.83 Z6.00 F3000 
G1 X527.03 Y154.59 Z6.00 F3000 
G1 X526.03 Y155.50 Z6.00 F3000 
G1 X525.42 Y156.63 Z6.00 F3000 
G1 X525.21 Y157.99 Z6.00 F3000 
G1 X525.48 Y159.41 Z6.00 F3000 
G1 X526.28 Y160.66 Z6.00 F3000 
G1 X527.67 Y161.53 Z6.00 F3000 
G1 X529.68 Y161.85 Z6.00 F3000 
G1 X532.18 Y161.74 Z6.00 F3000 
G1 X541.05 Y160.21 Z6.00 F3000 
G1 X544.48 Y159.82 Z6.00 F3000 
G1 X548.66 Y159.75 Z6.00 F3000 
G1 X553.96 Y160.14 Z6.00 F3000 
G1 X560.59 Y161.10 Z6.00 F3000 
G1 X568.04 Y162.56 Z6.00 F3000 
G1 X575.60 Y164.36 Z6.00 F3000 
G1 X582.60 Y166.38 Z6.00 F3000 
G1 X588.48 Y168.52 Z6.00 F3000 
G1 X593.32 Y170.84 Z6.00 F3000 
G1 X597.33 Y173.43 Z6.00 F3000 
G1 X600.74 Y176.38 Z6.00 F3000 
G1 X603.71 Y179.72 Z6.00 F3000 
G1 X606.12 Y183.18 Z6.00 F3000 
G1 X607.79 Y186.43 Z6.00 F3000 
G1 X608.57 Y189.15 Z6.00 F3000 
G1 X608.57 Y190.22 Z6.00 F3000 
G1 X608.34 Y191.09 Z6.00 F3000 
G1 X607.89 Y191.77 Z6.00 F3000 
G1 X607.28 Y192.29 Z6.00 F3000 
G1 X605.65 Y192.88 Z6.00 F3000 
G1 X603.72 Y192.99 Z6.00 F3000 
G1 X601.69 Y192.73 Z6.00 F3000 
G1 X599.66 Y192.17 Z6.00 F3000 
G1 X597.68 Y191.33 Z6.00 F3000 
G1 X595.79 Y190.28 Z6.00 F3000 
G1 X592.37 Y187.69 Z6.00 F3000 
G1 X588.97 Y184.76 Z6.00 F3000 
G1 X585.18 Y181.85 Z6.00 F3000 
G1 X581.21 Y179.27 Z6.00 F3000 
G1 X577.31 Y177.29 Z6.00 F3000 
G1 X575.32 Y176.61 Z6.00 F3000 
G1 X573.24 Y176.16 Z6.00 F3000 
G1 X571.06 Y175.97 Z6.00 F3000 
G1 X568.90 Y175.99 Z6.00 F3000 
G1 X565.24 Y176.41 Z6.00 F3000 
G1 X564.01 Y176.73 Z6.00 F3000 
G1 X563.17 Y177.14 Z6.00 F3000 
G1 X562.66 Y177.71 Z6.00 F3000 
G1 X562.40 Y178.51 Z6.00 F3000 
G1 X562.34 Y179.57 Z6.00 F3000 
G1 X562.59 Y180.88 Z6.00 F3000 
G1 X563.31 Y182.37 Z6.00 F3000 
G1 X564.63 Y184.00 Z6.00 F3000 
G1 X566.62 Y185.72 Z6.00 F3000 
G1 X569.08 Y187.40 Z6.00 F3000 
G1 X574.28 Y190.20 Z6.00 F3000 
G1 X583.47 Y193.77 Z6.00 F3000 
G1 X589.88 Y197.19 Z6.00 F3000 
G1 X593.20 Y199.32 Z6.00 F3000 
G1 X596.17 Y201.56 Z6.00 F3000 
G1 X598.58 Y203.81 Z6.00 F3000 
G1 X600.48 Y206.11 Z6.00 F3000 
G1 X602.00 Y208.54 Z6.00 F3000 
G1 X603.28 Y211.15 Z6.00 F3000 
G1 X605.45 Y216.94 Z6.00 F3000 
G1 X607.04 Y222.48 Z6.00 F3000 
G1 X607.96 Y226.91 Z6.00 F3000 
G1 X608.29 Y231.03 Z6.00 F3000 
G1 X608.15 Y235.62 Z6.00 F3000 
G1 X607.75 Y239.81 Z6.00 F3000 
G0 X607.75 Y239.81 Z80.00 F5000 
G0 X155.39 Y471.90 Z80.00 F5000 
G1 X155.39 Y471.90 Z6.00 F3000 
G1 X160.97 Y486.87 Z6.00 F3000 
G1 X166.32 Y499.59 Z6.00 F3000 
G1 X171.43 Y510.34 Z6.00 F3000 
G1 X176.31 Y519.38 Z6.00 F3000 
G1 X180.93 Y526.98 Z6.00 F3000 
G1 X185.30 Y533.41 Z6.00 F3000 
G1 X193.25 Y543.83 Z6.00 F3000 
G1 X200.20 Y552.51 Z6.00 F3000 
G1 X206.69 Y560.18 Z6.00 F3000 
G1 X213.33 Y567.29 Z6.00 F3000 
G1 X220.77 Y574.28 Z6.00 F3000 
G1 X225.11 Y577.84 Z6.00 F3000 
G1 X227.66 Y579.61 Z6.00 F3000 
G1 X230.61 Y581.35 Z6.00 F3000 
G1 X234.04 Y583.04 Z6.00 F3000 
G1 X238.06 Y584.67 Z6.00 F3000 
G1 X242.77 Y586.23 Z6.00 F3000 
G1 X248.27 Y587.69 Z6.00 F3000 
G1 X254.65 Y589.04 Z6.00 F3000 
G1 X262.03 Y590.26 Z6.00 F3000 
G1 X270.50 Y591.33 Z6.00 F3000 
G1 X280.15 Y592.25 Z6.00 F3000 
G1 X291.09 Y592.98 Z6.00 F3000 
G1 X303.42 Y593.53 Z6.00 F3000 
G1 X317.24 Y593.86 Z6.00 F3000 
G1 X332.65 Y593.96 Z6.00 F3000 
G0 X332.65 Y593.96 Z80.00 F5000 
G0 X148.79 Y463.02 Z80.00 F5000 
G1 X148.79 Y463.02 Z6.00 F3000 
G1 X150.26 Y461.10 Z6.00 F3000 
G1 X150.96 Y460.60 Z6.00 F3000 
G1 X151.74 Y460.38 Z6.00 F3000 
G1 X153.72 Y460.61 Z6.00 F3000 
G1 X158.54 Y461.69 Z6.00 F3000 
G1 X160.66 Y462.47 Z6.00 F3000 
G1 X161.47 Y463.17 Z6.00 F3000 
G1 X162.16 Y464.27 Z6.00 F3000 
G1 X163.51 Y468.45 Z6.00 F3000 
G1 X167.21 Y483.67 Z6.00 F3000 
G1 X168.24 Y487.02 Z6.00 F3000 
G1 X169.37 Y489.75 Z6.00 F3000 
G1 X170.68 Y491.83 Z6.00 F3000 
G1 X172.27 Y493.27 Z6.00 F3000 
G1 X174.16 Y494.01 Z6.00 F3000 
G1 X175.14 Y494.06 Z6.00 F3000 
G1 X176.09 Y493.89 Z6.00 F3000 
G1 X176.96 Y493.45 Z6.00 F3000 
G1 X177.72 Y492.73 Z6.00 F3000 
G1 X178.33 Y491.71 Z6.00 F3000 
G1 X178.74 Y490.36 Z6.00 F3000 
G1 X178.92 Y488.68 Z6.00 F3000 
G1 X178.89 Y486.72 Z6.00 F3000 
G1 X178.35 Y482.26 Z6.00 F3000 
G1 X177.35 Y477.56 Z6.00 F3000 
G1 X176.13 Y473.19 Z6.00 F3000 
G1 X173.04 Y464.48 Z6.00 F3000 
G1 X172.56 Y462.56 Z6.00 F3000 
G1 X172.52 Y460.87 Z6.00 F3000 
G1 X172.89 Y459.42 Z6.00 F3000 
G1 X173.66 Y458.29 Z6.00 F3000 
G1 X174.79 Y457.51 Z6.00 F3000 
G1 X176.23 Y457.13 Z6.00 F3000 
G1 X177.93 Y457.16 Z6.00 F3000 
G1 X179.80 Y457.57 Z6.00 F3000 
G1 X181.77 Y458.35 Z6.00 F3000 
G1 X183.76 Y459.51 Z6.00 F3000 
G1 X185.74 Y461.18 Z6.00 F3000 
G1 X187.67 Y463.53 Z6.00 F3000 
G1 X189.51 Y466.71 Z6.00 F3000 
G1 X191.20 Y470.82 Z6.00 F3000 
G1 X192.63 Y475.55 Z6.00 F3000 
G1 X193.67 Y480.53 Z6.00 F3000 
G1 X194.19 Y485.39 Z6.00 F3000 
G1 X194.11 Y489.84 Z6.00 F3000 
G1 X193.56 Y494.01 Z6.00 F3000 
G1 X191.11 Y506.79 Z6.00 F3000 
G1 X190.58 Y511.34 Z6.00 F3000 
G1 X190.38 Y515.69 Z6.00 F3000 
G1 X190.63 Y519.59 Z6.00 F3000 
G1 X191.37 Y522.79 Z6.00 F3000 
G1 X192.53 Y525.28 Z6.00 F3000 
G1 X193.94 Y527.06 Z6.00 F3000 
G1 X195.48 Y528.15 Z6.00 F3000 
G1 X197.03 Y528.56 Z6.00 F3000 
G1 X198.56 Y528.33 Z6.00 F3000 
G1 X200.09 Y527.52 Z6.00 F3000 
G1 X201.61 Y526.18 Z6.00 F3000 
G1 X203.12 Y524.35 Z6.00 F3000 
G1 X204.54 Y522.10 Z6.00 F3000 
G1 X205.79 Y519.50 Z6.00 F3000 
G1 X206.77 Y516.62 Z6.00 F3000 
G1 X207.42 Y513.53 Z6.00 F3000 
G1 X207.77 Y510.34 Z6.00 F3000 
G1 X207.79 Y504.05 Z6.00 F3000 
G1 X207.17 Y498.41 Z6.00 F3000 
G1 X206.58 Y495.79 Z6.00 F3000 
G1 X205.75 Y493.26 Z6.00 F3000 
G1 X203.48 Y488.34 Z6.00 F3000 
G1 X201.01 Y483.55 Z6.00 F3000 
G1 X197.28 Y474.94 Z6.00 F3000 
G1 X194.20 Y469.44 Z6.00 F3000 
G1 X193.82 Y468.33 Z6.00 F3000 
G1 X193.69 Y467.34 Z6.00 F3000 
G1 X193.86 Y466.55 Z6.00 F3000 
G1 X194.34 Y466.04 Z6.00 F3000 
G1 X195.15 Y465.87 Z6.00 F3000 
G1 X199.07 Y466.57 Z6.00 F3000 
G1 X202.36 Y467.25 Z6.00 F3000 
G1 X206.03 Y468.40 Z6.00 F3000 
G1 X207.98 Y469.32 Z6.00 F3000 
G1 X209.87 Y470.52 Z6.00 F3000 
G1 X211.56 Y472.02 Z6.00 F3000 
G1 X212.90 Y473.82 Z6.00 F3000 
G1 X213.80 Y475.92 Z6.00 F3000 
G1 X214.35 Y478.28 Z6.00 F3000 
G1 X215.80 Y488.93 Z6.00 F3000 
G1 X216.83 Y494.04 Z6.00 F3000 
G1 X218.86 Y502.57 Z6.00 F3000 
G1 X219.35 Y506.91 Z6.00 F3000 
G1 X219.45 Y511.77 Z6.00 F3000 
G1 X219.24 Y517.25 Z6.00 F3000 
G1 X218.22 Y528.16 Z6.00 F3000 
G1 X217.95 Y533.21 Z6.00 F3000 
G1 X218.07 Y535.69 Z6.00 F3000 
G1 X218.38 Y538.03 Z6.00 F3000 
G1 X218.87 Y540.09 Z6.00 F3000 
G1 X219.52 Y541.74 Z6.00 F3000 
G1 X220.32 Y542.86 Z6.00 F3000 
G1 X221.23 Y543.47 Z6.00 F3000 
G1 X222.19 Y543.62 Z6.00 F3000 
G1 X223.16 Y543.33 Z6.00 F3000 
G1 X224.10 Y542.64 Z6.00 F3000 
G1 X225.00 Y541.56 Z6.00 F3000 
G1 X225.86 Y540.08 Z6.00 F3000 
G1 X226.70 Y538.18 Z6.00 F3000 
G1 X228.30 Y533.28 Z6.00 F3000 
G1 X231.50 Y521.85 Z6.00 F3000 
G1 X232.79 Y516.18 Z6.00 F3000 
G1 X233.40 Y510.60 Z6.00 F3000 
G1 X233.41 Y507.90 Z6.00 F3000 
G1 X233.23 Y505.29 Z6.00 F3000 
G1 X232.28 Y500.48 Z6.00 F3000 
G1 X230.84 Y496.30 Z6.00 F3000 
G1 X229.24 Y492.88 Z6.00 F3000 
G1 X226.88 Y488.40 Z6.00 F3000 
G1 X226.88 Y487.77 Z6.00 F3000 
G1 X227.33 Y487.33 Z6.00 F3000 
G1 X228.29 Y487.08 Z6.00 F3000 
G1 X229.64 Y487.05 Z6.00 F3000 
G1 X231.20 Y487.25 Z6.00 F3000 
G1 X232.79 Y487.71 Z6.00 F3000 
G1 X234.29 Y488.44 Z6.00 F3000 
G1 X239.33 Y491.85 Z6.00 F3000 
G1 X244.05 Y494.73 Z6.00 F3000 
G1 X248.89 Y498.03 Z6.00 F3000 
G1 X250.92 Y499.88 Z6.00 F3000 
G1 X252.61 Y501.94 Z6.00 F3000 
G1 X253.97 Y504.33 Z6.00 F3000 
G1 X255.01 Y507.14 Z6.00 F3000 
G1 X255.74 Y510.44 Z6.00 F3000 
G1 X256.12 Y514.13 Z6.00 F3000 
G1 X256.15 Y518.08 Z6.00 F3000 
G1 X255.79 Y522.15 Z6.00 F3000 
G1 X255.04 Y526.23 Z6.00 F3000 
G1 X253.98 Y530.22 Z6.00 F3000 
G1 X251.40 Y537.73 Z6.00 F3000 
G1 X243.96 Y555.61 Z6.00 F3000 
G1 X242.53 Y560.02 Z6.00 F3000 
G1 X242.32 Y561.65 Z6.00 F3000 
G1 X242.42 Y562.93 Z6.00 F3000 
G1 X242.80 Y563.94 Z6.00 F3000 
G1 X243.37 Y564.77 Z6.00 F3000 
G1 X244.12 Y565.46 Z6.00 F3000 
G1 X245.03 Y565.89 Z6.00 F3000 
G1 X246.16 Y565.93 Z6.00 F3000 
G1 X247.51 Y565.43 Z6.00 F3000 
G1 X249.11 Y564.27 Z6.00 F3000 
G1 X250.88 Y562.55 Z6.00 F3000 
G1 X254.66 Y557.94 Z6.00 F3000 
G1 X258.23 Y552.52 Z6.00 F3000 
G1 X259.76 Y549.63 Z6.00 F3000 
G1 X261.02 Y546.68 Z6.00 F3000 
G1 X261.98 Y543.69 Z6.00 F3000 
G1 X264.05 Y534.06 Z6.00 F3000 
G1 X265.75 Y527.12 Z6.00 F3000 
G1 X267.46 Y521.65 Z6.00 F3000 
G1 X268.15 Y520.11 Z6.00 F3000 
G1 X268.77 Y519.43 Z6.00 F3000 
G1 X269.41 Y519.54 Z6.00 F3000 
G1 X270.15 Y520.35 Z6.00 F3000 
G1 X272.16 Y523.84 Z6.00 F3000 
G1 X274.72 Y529.39 Z6.00 F3000 
G1 X277.45 Y536.45 Z6.00 F3000 
G1 X278.58 Y540.26 Z6.00 F3000 
G1 X279.33 Y544.07 Z6.00 F3000 
G1 X279.61 Y547.77 Z6.00 F3000 
G1 X279.46 Y551.28 Z6.00 F3000 
G1 X278.94 Y554.51 Z6.00 F3000 
G1 X278.15 Y557.41 Z6.00 F3000 
G1 X277.14 Y559.92 Z6.00 F3000 
G1 X275.92 Y562.11 Z6.00 F3000 
G1 X274.49 Y564.08 Z6.00 F3000 
G1 X272.84 Y565.91 Z6.00 F3000 
G1 X265.21 Y572.91 Z6.00 F3000 
G1 X262.18 Y576.30 Z6.00 F3000 
G1 X260.18 Y579.41 Z6.00 F3000 
G1 X259.61 Y580.79 Z6.00 F3000 
G1 X259.29 Y582.07 Z6.00 F3000 
G1 X259.22 Y583.27 Z6.00 F3000 
G1 X259.37 Y584.41 Z6.00 F3000 
G1 X260.19 Y586.51 Z6.00 F3000 
G1 X261.45 Y588.00 Z6.00 F3000 
G1 X262.15 Y588.36 Z6.00 F3000 
G1 X262.91 Y588.34 Z6.00 F3000 
G1 X263.74 Y587.83 Z6.00 F3000 
G1 X264.67 Y586.73 Z6.00 F3000 
G1 X269.15 Y578.41 Z6.00 F3000 
G1 X271.31 Y575.18 Z6.00 F3000 
G1 X273.29 Y573.09 Z6.00 F3000 
G1 X275.12 Y571.82 Z6.00 F3000 
G1 X275.90 Y571.59 Z6.00 F3000 
G1 X276.56 Y571.73 Z6.00 F3000 
G1 X277.05 Y572.28 Z6.00 F3000 
G1 X277.40 Y573.21 Z6.00 F3000 
G1 X277.76 Y576.07 Z6.00 F3000 
G1 X277.78 Y579.93 Z6.00 F3000 
G1 X277.41 Y584.48 Z6.00 F3000 
G1 X276.76 Y589.39 Z6.00 F3000 
G1 X276.62 Y591.88 Z6.00 F3000 
G1 X276.80 Y594.34 Z6.00 F3000 
G1 X277.41 Y596.74 Z6.00 F3000 
G1 X278.35 Y599.05 Z6.00 F3000 
G1 X282.55 Y607.05 Z6.00 F3000 
G1 X283.15 Y608.59 Z6.00 F3000 
G1 X283.40 Y609.85 Z6.00 F3000 
G1 X283.25 Y610.82 Z6.00 F3000 
G1 X282.69 Y611.53 Z6.00 F3000 
G1 X281.76 Y612.03 Z6.00 F3000 
G1 X280.47 Y612.38 Z6.00 F3000 
G1 X277.00 Y612.77 Z6.00 F3000 
G1 X273.02 Y612.81 Z6.00 F3000 
G1 X269.22 Y612.49 Z6.00 F3000 
G1 X265.78 Y611.60 Z6.00 F3000 
G1 X262.71 Y610.00 Z6.00 F3000 
G1 X256.68 Y606.32 Z6.00 F3000 
G1 X253.85 Y605.08 Z6.00 F3000 
G1 X252.67 Y604.77 Z6.00 F3000 
G1 X251.67 Y604.76 Z6.00 F3000 
G1 X250.89 Y605.14 Z6.00 F3000 
G1 X250.31 Y606.00 Z6.00 F3000 
G1 X249.96 Y607.38 Z6.00 F3000 
G1 X249.79 Y609.19 Z6.00 F3000 
G1 X249.73 Y618.09 Z6.00 F3000 
G1 X249.56 Y622.49 Z6.00 F3000 
G1 X248.97 Y626.52 Z6.00 F3000 
G1 X248.41 Y628.31 Z6.00 F3000 
G1 X247.60 Y629.90 Z6.00 F3000 
G1 X244.08 Y633.82 Z6.00 F3000 
G1 X243.02 Y635.22 Z6.00 F3000 
G1 X240.66 Y640.71 Z6.00 F3000 
G1 X239.49 Y642.87 Z6.00 F3000 
G1 X237.83 Y645.12 Z6.00 F3000 
G1 X235.73 Y647.26 Z6.00 F3000 
G1 X233.31 Y649.11 Z6.00 F3000 
G1 X230.69 Y650.47 Z6.00 F3000 
G1 X227.97 Y651.20 Z6.00 F3000 
G1 X219.31 Y652.03 Z6.00 F3000 
G1 X206.87 Y655.16 Z6.00 F3000 
G1 X203.79 Y655.47 Z6.00 F3000 
G1 X200.81 Y655.44 Z6.00 F3000 
G1 X197.99 Y655.13 Z6.00 F3000 
G1 X195.39 Y654.63 Z6.00 F3000 
G1 X190.97 Y653.28 Z6.00 F3000 
G1 X184.42 Y650.37 Z6.00 F3000 
G1 X183.50 Y649.71 Z6.00 F3000 
G1 X183.14 Y649.08 Z6.00 F3000 
G1 X183.43 Y648.44 Z6.00 F3000 
G1 X187.40 Y645.69 Z6.00 F3000 
G1 X191.65 Y642.37 Z6.00 F3000 
G1 X202.71 Y632.55 Z6.00 F3000 
G1 X207.60 Y627.62 Z6.00 F3000 
G1 X209.13 Y625.71 Z6.00 F3000 
G1 X209.87 Y624.31 Z6.00 F3000 
G1 X209.91 Y623.82 Z6.00 F3000 
G1 X209.72 Y623.50 Z6.00 F3000 
G1 X209.28 Y623.34 Z6.00 F3000 
G1 X208.60 Y623.37 Z6.00 F3000 
G1 X206.48 Y623.95 Z6.00 F3000 
G1 X203.66 Y625.12 Z6.00 F3000 
G1 X197.28 Y628.46 Z6.00 F3000 
G1 X189.04 Y633.65 Z6.00 F3000 
G1 X186.45 Y634.96 Z6.00 F3000 
G1 X183.78 Y635.89 Z6.00 F3000 
G1 X181.14 Y636.48 Z6.00 F3000 
G1 X178.65 Y636.77 Z6.00 F3000 
G1 X176.45 Y636.80 Z6.00 F3000 
G1 X174.64 Y636.61 Z6.00 F3000 
G1 X173.13 Y636.24 Z6.00 F3000 
G1 X170.55 Y634.98 Z6.00 F3000 
G1 X167.93 Y633.19 Z6.00 F3000 
G1 X165.22 Y631.00 Z6.00 F3000 
G1 X162.51 Y628.43 Z6.00 F3000 
G1 X159.89 Y624.99 Z6.00 F3000 
G1 X157.48 Y620.51 Z6.00 F3000 
G1 X155.25 Y615.27 Z6.00 F3000 
G1 X155.18 Y614.50 Z6.00 F3000 
G1 X155.61 Y614.10 Z6.00 F3000 
G1 X156.65 Y613.92 Z6.00 F3000 
G1 X160.66 Y613.93 Z6.00 F3000 
G1 X173.32 Y614.81 Z6.00 F3000 
G1 X176.81 Y614.88 Z6.00 F3000 
G1 X180.22 Y614.67 Z6.00 F3000 
G1 X183.49 Y614.10 Z6.00 F3000 
G1 X186.52 Y613.19 Z6.00 F3000 
G1 X189.28 Y612.03 Z6.00 F3000 
G1 X191.68 Y610.69 Z6.00 F3000 
G1 X193.68 Y609.25 Z6.00 F3000 
G1 X195.29 Y607.76 Z6.00 F3000 
G1 X196.52 Y606.29 Z6.00 F3000 
G1 X197.40 Y604.91 Z6.00 F3000 
G1 X197.93 Y603.67 Z6.00 F3000 
G1 X198.07 Y602.61 Z6.00 F3000 
G1 X197.80 Y601.75 Z6.00 F3000 
G1 X197.08 Y601.12 Z6.00 F3000 
G1 X195.87 Y600.74 Z6.00 F3000 
G1 X194.24 Y600.62 Z6.00 F3000 
G1 X192.24 Y600.76 Z6.00 F3000 
G1 X189.95 Y601.15 Z6.00 F3000 
G1 X177.72 Y604.47 Z6.00 F3000 
G1 X169.44 Y606.10 Z6.00 F3000 
G1 X165.48 Y606.60 Z6.00 F3000 
G1 X162.17 Y606.75 Z6.00 F3000 
G1 X159.77 Y606.47 Z6.00 F3000 
G1 X158.08 Y605.76 Z6.00 F3000 
G1 X156.81 Y604.61 Z6.00 F3000 
G1 X155.64 Y603.05 Z6.00 F3000 
G1 X152.96 Y598.83 Z6.00 F3000 
G1 X150.29 Y593.94 Z6.00 F3000 
G1 X148.30 Y589.20 Z6.00 F3000 
G1 X147.03 Y584.64 Z6.00 F3000 
G1 X146.44 Y580.30 Z6.00 F3000 
G1 X146.43 Y578.43 Z6.00 F3000 
G1 X146.66 Y576.91 Z6.00 F3000 
G1 X147.13 Y575.83 Z6.00 F3000 
G1 X147.86 Y575.22 Z6.00 F3000 
G1 X148.85 Y575.10 Z6.00 F3000 
G1 X150.08 Y575.49 Z6.00 F3000 
G1 X153.24 Y577.60 Z6.00 F3000 
G1 X156.96 Y580.35 Z6.00 F3000 
G1 X160.92 Y582.59 Z6.00 F3000 
G1 X165.24 Y584.23 Z6.00 F3000 
G1 X170.06 Y585.40 Z6.00 F3000 
G1 X175.04 Y586.04 Z6.00 F3000 
G1 X179.79 Y586.05 Z6.00 F3000 
G1 X184.08 Y585.52 Z6.00 F3000 
G1 X185.96 Y585.08 Z6.00 F3000 
G1 X187.55 Y584.43 Z6.00 F3000 
G1 X188.74 Y583.47 Z6.00 F3000 
G1 X189.39 Y582.09 Z6.00 F3000 
G1 X189.43 Y580.27 Z6.00 F3000 
G1 X188.85 Y578.24 Z6.00 F3000 
G1 X187.70 Y576.33 Z6.00 F3000 
G1 X186.02 Y574.85 Z6.00 F3000 
G1 X183.87 Y574.05 Z6.00 F3000 
G1 X181.36 Y573.78 Z6.00 F3000 
G1 X175.76 Y573.93 Z6.00 F3000 
G1 X170.14 Y573.85 Z6.00 F3000 
G1 X164.82 Y573.46 Z6.00 F3000 
G1 X155.83 Y572.40 Z6.00 F3000 
G1 X152.36 Y571.62 Z6.00 F3000 
G1 X149.30 Y570.46 Z6.00 F3000 
G1 X147.79 Y569.64 Z6.00 F3000 
G1 X146.26 Y568.38 Z6.00 F3000 
G1 X144.65 Y566.37 Z6.00 F3000 
G1 X142.94 Y563.34 Z6.00 F3000 
G1 X141.12 Y559.12 Z6.00 F3000 
G1 X139.36 Y554.24 Z6.00 F3000 
G1 X137.83 Y549.35 Z6.00 F3000 
G1 X136.72 Y545.12 Z6.00 F3000 
G1 X136.18 Y542.05 Z6.00 F3000 
G1 X136.18 Y540.02 Z6.00 F3000 
G1 X136.63 Y538.74 Z6.00 F3000 
G1 X137.46 Y537.92 Z6.00 F3000 
G1 X138.59 Y537.36 Z6.00 F3000 
G1 X139.95 Y537.09 Z6.00 F3000 
G1 X141.49 Y537.23 Z6.00 F3000 
G1 X143.12 Y537.89 Z6.00 F3000 
G1 X144.82 Y539.13 Z6.00 F3000 
G1 X150.43 Y545.00 Z6.00 F3000 
G1 X154.84 Y549.14 Z6.00 F3000 
G1 X159.58 Y552.66 Z6.00 F3000 
G1 X164.37 Y555.23 Z6.00 F3000 
G1 X169.00 Y557.00 Z6.00 F3000 
G1 X173.28 Y558.21 Z6.00 F3000 
G1 X176.96 Y558.88 Z6.00 F3000 
G1 X179.82 Y558.90 Z6.00 F3000 
G1 X180.93 Y558.56 Z6.00 F3000 
G1 X181.82 Y557.91 Z6.00 F3000 
G1 X182.48 Y556.93 Z6.00 F3000 
G1 X182.80 Y555.74 Z6.00 F3000 
G1 X182.65 Y554.48 Z6.00 F3000 
G1 X181.89 Y553.29 Z6.00 F3000 
G1 X180.45 Y552.29 Z6.00 F3000 
G1 X178.47 Y551.45 Z6.00 F3000 
G1 X168.23 Y548.39 Z6.00 F3000 
G1 X164.97 Y546.90 Z6.00 F3000 
G1 X161.00 Y544.64 Z6.00 F3000 
G1 X156.22 Y541.44 Z6.00 F3000 
G1 X150.99 Y537.56 Z6.00 F3000 
G1 X145.80 Y533.36 Z6.00 F3000 
G1 X141.12 Y529.21 Z6.00 F3000 
G1 X137.36 Y525.37 Z6.00 F3000 
G1 X134.47 Y521.79 Z6.00 F3000 
G1 X132.32 Y518.30 Z6.00 F3000 
G1 X130.76 Y514.75 Z6.00 F3000 
G1 X129.70 Y511.07 Z6.00 F3000 
G1 X129.11 Y507.50 Z6.00 F3000 
G1 X129.02 Y504.35 Z6.00 F3000 
G1 X129.42 Y501.96 Z6.00 F3000 
G1 X129.82 Y501.13 Z6.00 F3000 
G1 X130.32 Y500.55 Z6.00 F3000 
G1 X130.91 Y500.18 Z6.00 F3000 
G1 X131.58 Y500.01 Z6.00 F3000 
G1 X133.06 Y500.15 Z6.00 F3000 
G1 X134.60 Y500.78 Z6.00 F3000 
G1 X136.07 Y501.73 Z6.00 F3000 
G1 X137.44 Y502.92 Z6.00 F3000 
G1 X138.67 Y504.30 Z6.00 F3000 
G1 X139.74 Y505.81 Z6.00 F3000 
G1 X141.43 Y509.09 Z6.00 F3000 
G1 X142.98 Y512.62 Z6.00 F3000 
G1 X144.84 Y516.27 Z6.00 F3000 
G1 X146.97 Y519.74 Z6.00 F3000 
G1 X149.26 Y522.71 Z6.00 F3000 
G1 X150.54 Y523.98 Z6.00 F3000 
G1 X151.99 Y525.09 Z6.00 F3000 
G1 X155.29 Y526.83 Z6.00 F3000 
G1 X158.28 Y527.86 Z6.00 F3000 
G1 X160.15 Y528.06 Z6.00 F3000 
G1 X160.76 Y527.81 Z6.00 F3000 
G1 X161.26 Y527.29 Z6.00 F3000 
G1 X161.70 Y526.48 Z6.00 F3000 
G1 X161.98 Y525.38 Z6.00 F3000 
G1 X161.98 Y523.96 Z6.00 F3000 
G1 X161.56 Y522.20 Z6.00 F3000 
G1 X160.65 Y520.14 Z6.00 F3000 
G1 X159.37 Y517.92 Z6.00 F3000 
G1 X156.38 Y513.83 Z6.00 F3000 
G1 X150.58 Y507.66 Z6.00 F3000 
G1 X146.87 Y502.65 Z6.00 F3000 
G1 X145.09 Y499.77 Z6.00 F3000 
G1 X143.61 Y496.93 Z6.00 F3000 
G1 X142.58 Y494.30 Z6.00 F3000 
G1 X141.96 Y491.81 Z6.00 F3000 
G1 X141.68 Y489.37 Z6.00 F3000 
G1 X141.66 Y486.87 Z6.00 F3000 
G1 X142.12 Y481.59 Z6.00 F3000 
G1 X142.93 Y476.70 Z6.00 F3000 
G1 X143.85 Y472.93 Z6.00 F3000 
G1 X145.13 Y469.62 Z6.00 F3000 
G1 X146.94 Y466.11 Z6.00 F3000 
G1 X148.79 Y463.02 Z6.00 F3000 
G0 X148.79 Y463.02 Z80.00 F5000 
G0 X293.72 Y68.80 Z80.00 F5000 
G1 X293.72 Y68.80 Z6.00 F3000 
G1 X293.01 Y70.73 Z6.00 F3000 
G1 X292.53 Y71.23 Z6.00 F3000 
G1 X291.78 Y71.55 Z6.00 F3000 
G1 X286.22 Y72.45 Z6.00 F3000 
G1 X283.45 Y73.06 Z6.00 F3000 
G1 X282.48 Y73.50 Z6.00 F3000 
G1 X281.93 Y74.08 Z6.00 F3000 
G1 X281.90 Y74.81 Z6.00 F3000 
G1 X282.29 Y75.64 Z6.00 F3000 
G1 X283.90 Y77.33 Z6.00 F3000 
G1 X287.45 Y79.86 Z6.00 F3000 
G1 X287.94 Y80.36 Z6.00 F3000 
G1 X288.17 Y80.98 Z6.00 F3000 
G1 X287.90 Y83.23 Z6.00 F3000 
G1 X286.61 Y87.63 Z6.00 F3000 
G1 X284.10 Y93.64 Z6.00 F3000 
G1 X280.32 Y100.33 Z6.00 F3000 
G1 X276.11 Y106.47 Z6.00 F3000 
G1 X269.04 Y114.95 Z6.00 F3000 
G1 X263.68 Y121.78 Z6.00 F3000 
G1 X261.59 Y124.17 Z6.00 F3000 
G1 X260.52 Y125.05 Z6.00 F3000 
G1 X259.31 Y125.75 Z6.00 F3000 
G1 X257.92 Y126.28 Z6.00 F3000 
G1 X256.38 Y126.61 Z6.00 F3000 
G1 X254.75 Y126.70 Z6.00 F3000 
G1 X253.11 Y126.54 Z6.00 F3000 
G1 X251.49 Y126.09 Z6.00 F3000 
G1 X249.81 Y125.36 Z6.00 F3000 
G1 X235.06 Y117.09 Z6.00 F3000 
G1 X229.98 Y114.64 Z6.00 F3000 
G1 X227.70 Y113.84 Z6.00 F3000 
G1 X225.60 Y113.43 Z6.00 F3000 
G1 X223.72 Y113.45 Z6.00 F3000 
G1 X222.19 Y113.87 Z6.00 F3000 
G1 X221.19 Y114.61 Z6.00 F3000 
G1 X220.94 Y115.08 Z6.00 F3000 
G1 X220.90 Y115.62 Z6.00 F3000 
G1 X221.43 Y116.81 Z6.00 F3000 
G1 X222.61 Y118.09 Z6.00 F3000 
G1 X224.22 Y119.33 Z6.00 F3000 
G1 X226.03 Y120.43 Z6.00 F3000 
G1 X229.61 Y121.97 Z6.00 F3000 
G1 X232.91 Y123.10 Z6.00 F3000 
G1 X235.86 Y124.36 Z6.00 F3000 
G1 X238.71 Y125.92 Z6.00 F3000 
G1 X244.51 Y129.76 Z6.00 F3000 
G1 X246.75 Y131.72 Z6.00 F3000 
G1 X247.36 Y132.80 Z6.00 F3000 
G1 X247.44 Y134.04 Z6.00 F3000 
G1 X246.90 Y135.47 Z6.00 F3000 
G1 X245.84 Y137.08 Z6.00 F3000 
G1 X242.62 Y140.76 Z6.00 F3000 
G1 X234.93 Y148.96 Z6.00 F3000 
G1 X228.87 Y156.05 Z6.00 F3000 
G1 X227.37 Y157.39 Z6.00 F3000 
G1 X225.81 Y158.47 Z6.00 F3000 
G1 X224.16 Y159.24 Z6.00 F3000 
G1 X222.42 Y159.64 Z6.00 F3000 
G1 X220.57 Y159.65 Z6.00 F3000 
G1 X218.61 Y159.24 Z6.00 F3000 
G1 X216.53 Y158.43 Z6.00 F3000 
G1 X214.32 Y157.22 Z6.00 F3000 
G1 X209.55 Y153.81 Z6.00 F3000 
G1 X196.08 Y143.24 Z6.00 F3000 
G1 X192.93 Y140.47 Z6.00 F3000 
G1 X192.74 Y140.47 Z6.00 F3000 
G1 X192.73 Y141.59 Z6.00 F3000 
G1 X193.21 Y143.16 Z6.00 F3000 
G1 X194.08 Y145.14 Z6.00 F3000 
G1 X195.33 Y147.31 Z6.00 F3000 
G1 X196.94 Y149.49 Z6.00 F3000 
G1 X198.83 Y151.65 Z6.00 F3000 
G1 X207.10 Y159.96 Z6.00 F3000 
G1 X213.18 Y165.19 Z6.00 F3000 
G1 X213.63 Y166.34 Z6.00 F3000 
G1 X213.28 Y167.98 Z6.00 F3000 
G1 X212.02 Y170.29 Z6.00 F3000 
G1 X210.08 Y173.02 Z6.00 F3000 
G1 X207.79 Y175.79 Z6.00 F3000 
G1 X205.47 Y178.24 Z6.00 F3000 
G1 X203.35 Y180.11 Z6.00 F3000 
G1 X201.32 Y181.52 Z6.00 F3000 
G1 X190.61 Y187.10 Z6.00 F3000 
G1 X183.97 Y189.95 Z6.00 F3000 
G1 X180.91 Y190.86 Z6.00 F3000 
G1 X178.15 Y191.28 Z6.00 F3000 
G1 X175.73 Y191.10 Z6.00 F3000 
G1 X174.66 Y190.76 Z6.00 F3000 
G1 X173.69 Y190.24 Z6.00 F3000 
G1 X172.05 Y188.70 Z6.00 F3000 
G1 X170.76 Y186.77 Z6.00 F3000 
G1 X168.88 Y183.24 Z6.00 F3000 
G1 X168.15 Y182.32 Z6.00 F3000 
G1 X167.47 Y182.20 Z6.00 F3000 
G1 X166.81 Y182.92 Z6.00 F3000 
G1 X166.12 Y184.54 Z6.00 F3000 
G1 X163.48 Y193.19 Z6.00 F3000 
G1 X162.28 Y196.01 Z6.00 F3000 
G1 X160.84 Y198.19 Z6.00 F3000 
G1 X159.18 Y199.72 Z6.00 F3000 
G1 X157.28 Y200.68 Z6.00 F3000 
G1 X155.13 Y201.16 Z6.00 F3000 
G1 X152.75 Y201.25 Z6.00 F3000 
G1 X150.16 Y201.02 Z6.00 F3000 
G1 X144.57 Y199.95 Z6.00 F3000 
G1 X138.71 Y198.38 Z6.00 F3000 
G1 X135.78 Y197.24 Z6.00 F3000 
G1 X132.88 Y195.72 Z6.00 F3000 
G1 X130.06 Y193.74 Z6.00 F3000 
G1 X127.36 Y191.40 Z6.00 F3000 
G1 X124.80 Y188.79 Z6.00 F3000 
G1 X122.42 Y186.03 Z6.00 F3000 
G1 X120.26 Y183.20 Z6.00 F3000 
G1 X118.35 Y180.32 Z6.00 F3000 
G1 X116.71 Y177.38 Z6.00 F3000 
G1 X115.38 Y174.34 Z6.00 F3000 
G1 X114.36 Y171.21 Z6.00 F3000 
G1 X113.60 Y167.93 Z6.00 F3000 
G1 X112.44 Y160.79 Z6.00 F3000 
G1 X111.53 Y153.14 Z6.00 F3000 
G1 X111.50 Y149.85 Z6.00 F3000 
G1 X111.66 Y148.51 Z6.00 F3000 
G1 X111.99 Y147.43 Z6.00 F3000 
G1 X112.47 Y146.65 Z6.00 F3000 
G1 X113.11 Y146.15 Z6.00 F3000 
G1 X113.88 Y145.91 Z6.00 F3000 
G1 X114.74 Y145.91 Z6.00 F3000 
G1 X116.66 Y146.49 Z6.00 F3000 
G1 X118.66 Y147.69 Z6.00 F3000 
G1 X120.53 Y149.28 Z6.00 F3000 
G1 X123.57 Y152.64 Z6.00 F3000 
G1 X122.20 Y150.68 Z6.00 F3000 
G1 X119.43 Y146.05 Z6.00 F3000 
G1 X118.14 Y143.29 Z6.00 F3000 
G1 X117.12 Y140.44 Z6.00 F3000 
G1 X116.47 Y137.61 Z6.00 F3000 
G1 X116.29 Y134.91 Z6.00 F3000 
G1 X116.64 Y132.41 Z6.00 F3000 
G1 X117.46 Y130.08 Z6.00 F3000 
G1 X118.62 Y127.85 Z6.00 F3000 
G1 X120.00 Y125.66 Z6.00 F3000 
G1 X123.08 Y121.48 Z6.00 F3000 
G1 X124.65 Y119.86 Z6.00 F3000 
G1 X126.17 Y118.82 Z6.00 F3000 
G1 X126.89 Y118.58 Z6.00 F3000 
G1 X127.61 Y118.54 Z6.00 F3000 
G1 X128.33 Y118.73 Z6.00 F3000 
G1 X129.08 Y119.14 Z6.00 F3000 
G1 X130.72 Y120.70 Z6.00 F3000 
G1 X132.66 Y123.30 Z6.00 F3000 
G1 X137.49 Y131.12 Z6.00 F3000 
G1 X142.12 Y139.06 Z6.00 F3000 
G1 X145.12 Y143.78 Z6.00 F3000 
G1 X147.20 Y146.15 Z6.00 F3000 
G1 X148.25 Y147.00 Z6.00 F3000 
G1 X149.29 Y147.55 Z6.00 F3000 
G1 X150.23 Y147.61 Z6.00 F3000 
G1 X150.99 Y146.99 Z6.00 F3000 
G1 X151.48 Y145.56 Z6.00 F3000 
G1 X151.65 Y143.45 Z6.00 F3000 
G1 X151.46 Y140.88 Z6.00 F3000 
G1 X150.88 Y138.04 Z6.00 F3000 
G1 X149.87 Y135.11 Z6.00 F3000 
G1 X148.55 Y132.19 Z6.00 F3000 
G1 X145.37 Y126.56 Z6.00 F3000 
G1 X139.80 Y117.48 Z6.00 F3000 
G1 X139.09 Y115.76 Z6.00 F3000 
G1 X138.96 Y114.90 Z6.00 F3000 
G1 X139.03 Y113.99 Z6.00 F3000 
G1 X139.34 Y112.98 Z6.00 F3000 
G1 X139.93 Y111.83 Z6.00 F3000 
G1 X142.12 Y108.97 Z6.00 F3000 
G1 X145.75 Y105.22 Z6.00 F3000 
G1 X150.37 Y100.91 Z6.00 F3000 
G1 X160.14 Y92.58 Z6.00 F3000 
G1 X167.51 Y86.96 Z6.00 F3000 
G1 X175.52 Y81.26 Z6.00 F3000 
G1 X176.71 Y80.72 Z6.00 F3000 
G1 X177.78 Y80.72 Z6.00 F3000 
G1 X178.81 Y81.32 Z6.00 F3000 
G1 X179.79 Y82.36 Z6.00 F3000 
G1 X182.88 Y86.99 Z6.00 F3000 
G1 X183.50 Y87.37 Z6.00 F3000 
G1 X184.14 Y87.11 Z6.00 F3000 
G1 X184.82 Y86.15 Z6.00 F3000 
G1 X185.49 Y84.63 Z6.00 F3000 
G1 X186.06 Y82.79 Z6.00 F3000 
G1 X186.43 Y80.84 Z6.00 F3000 
G1 X186.80 Y77.13 Z6.00 F3000 
G1 X187.41 Y75.27 Z6.00 F3000 
G1 X188.76 Y73.28 Z6.00 F3000 
G1 X191.06 Y71.18 Z6.00 F3000 
G1 X194.01 Y69.32 Z6.00 F3000 
G1 X195.60 Y68.63 Z6.00 F3000 
G1 X197.19 Y68.17 Z6.00 F3000 
G1 X198.73 Y68.00 Z6.00 F3000 
G1 X200.17 Y68.17 Z6.00 F3000 
G1 X201.46 Y68.71 Z6.00 F3000 
G1 X202.62 Y69.55 Z6.00 F3000 
G1 X204.57 Y71.70 Z6.00 F3000 
G1 X206.89 Y74.55 Z6.00 F3000 
G1 X207.56 Y74.98 Z6.00 F3000 
G1 X208.20 Y75.00 Z6.00 F3000 
G1 X208.83 Y74.66 Z6.00 F3000 
G1 X210.00 Y73.14 Z6.00 F3000 
G1 X213.60 Y64.75 Z6.00 F3000 
G1 X214.63 Y63.09 Z6.00 F3000 
G1 X216.04 Y61.44 Z6.00 F3000 
G1 X217.95 Y59.73 Z6.00 F3000 
G1 X220.36 Y57.99 Z6.00 F3000 
G1 X223.17 Y56.31 Z6.00 F3000 
G1 X226.34 Y54.75 Z6.00 F3000 
G1 X233.35 Y52.17 Z6.00 F3000 
G1 X240.34 Y50.01 Z6.00 F3000 
G1 X246.53 Y47.79 Z6.00 F3000 
G1 X249.51 Y46.43 Z6.00 F3000 
G1 X252.56 Y44.79 Z6.00 F3000 
G1 X262.46 Y38.76 Z6.00 F3000 
G1 X265.71 Y37.17 Z6.00 F3000 
G1 X268.78 Y36.15 Z6.00 F3000 
G1 X271.67 Y35.65 Z6.00 F3000 
G1 X274.38 Y35.54 Z6.00 F3000 
G1 X276.91 Y35.72 Z6.00 F3000 
G1 X279.25 Y36.09 Z6.00 F3000 
G1 X281.38 Y36.67 Z6.00 F3000 
G1 X283.26 Y37.51 Z6.00 F3000 
G1 X284.86 Y38.64 Z6.00 F3000 
G1 X286.17 Y40.09 Z6.00 F3000 
G1 X289.42 Y45.32 Z6.00 F3000 
G1 X293.14 Y50.25 Z6.00 F3000 
G1 X294.16 Y52.03 Z6.00 F3000 
G1 X294.88 Y54.00 Z6.00 F3000 
G1 X295.31 Y56.13 Z6.00 F3000 
G1 X295.47 Y58.38 Z6.00 F3000 
G1 X295.38 Y60.69 Z6.00 F3000 
G1 X294.64 Y65.22 Z6.00 F3000 
G1 X293.72 Y68.80 Z6.00 F3000 
G0 X293.72 Y68.80 Z80.00 F5000 
G0 X276.06 Y64.17 Z80.00 F5000 
G1 X276.06 Y64.17 Z6.00 F3000 
G1 X240.00 Y88.38 Z6.00 F3000 
G1 X226.55 Y97.75 Z6.00 F3000 
G1 X215.58 Y105.65 Z6.00 F3000 
G1 X206.66 Y112.34 Z6.00 F3000 
G1 X199.36 Y118.11 Z6.00 F3000 
G1 X193.27 Y123.23 Z6.00 F3000 
G1 X187.95 Y127.95 Z6.00 F3000 
G1 X178.31 Y137.06 Z6.00 F3000 
G1 X169.02 Y146.43 Z6.00 F3000 
G1 X147.32 Y168.90 Z6.00 F3000 
G1 X98.11 Y218.79 Z6.00 F3000 
G1 X78.30 Y239.47 Z6.00 F3000 
G0 X78.30 Y239.47 Z80.00 F5000 
G0 X385.27 Y416.60 Z80.00 F5000 
G1 X385.27 Y416.60 Z6.00 F3000 
G1 X382.42 Y417.67 Z6.00 F3000 
G1 X379.39 Y418.01 Z6.00 F3000 
G1 X376.37 Y417.58 Z6.00 F3000 
G1 X373.55 Y416.42 Z6.00 F3000 
G1 X371.11 Y414.60 Z6.00 F3000 
G1 X369.19 Y412.24 Z6.00 F3000 
G1 X367.92 Y409.47 Z6.00 F3000 
G1 X367.37 Y406.47 Z6.00 F3000 
G1 X367.59 Y403.43 Z6.00 F3000 
G1 X368.54 Y400.54 Z6.00 F3000 
G1 X370.19 Y397.97 Z6.00 F3000 
G1 X372.42 Y395.89 Z6.00 F3000 
G1 X375.09 Y394.43 Z6.00 F3000 
G1 X378.04 Y393.67 Z6.00 F3000 
G1 X381.09 Y393.67 Z6.00 F3000 
G1 X384.04 Y394.43 Z6.00 F3000 
G1 X386.72 Y395.89 Z6.00 F3000 
G0 X386.72 Y395.89 Z80.00 F5000 
G0 X375.37 Y433.94 Z80.00 F5000 
G1 X375.37 Y433.94 Z6.00 F3000 
G1 X371.56 Y430.29 Z6.00 F3000 
G1 X368.20 Y426.42 Z6.00 F3000 
G1 X365.27 Y422.37 Z6.00 F3000 
G1 X362.77 Y418.16 Z6.00 F3000 
G1 X360.68 Y413.82 Z6.00 F3000 
G1 X359.00 Y409.39 Z6.00 F3000 
G1 X357.71 Y404.88 Z6.00 F3000 
G1 X356.82 Y400.34 Z6.00 F3000 
G1 X356.31 Y395.78 Z6.00 F3000 
G1 X356.23 Y391.17 Z6.00 F3000 
G1 X356.60 Y386.49 Z6.00 F3000 
G1 X357.47 Y381.71 Z6.00 F3000 
G1 X358.87 Y376.78 Z6.00 F3000 
G1 X360.85 Y371.68 Z6.00 F3000 
G1 X363.44 Y366.37 Z6.00 F3000 
G1 X366.69 Y360.83 Z6.00 F3000 
G0 X366.69 Y360.83 Z80.00 F5000 
G0 X375.37 Y433.94 Z80.00 F5000 
G1 X375.37 Y433.94 Z6.00 F3000 
G1 X379.26 Y428.95 Z6.00 F3000 
G1 X382.25 Y424.01 Z6.00 F3000 
G1 X384.43 Y419.11 Z6.00 F3000 
G1 X385.90 Y414.27 Z6.00 F3000 
G1 X386.77 Y409.50 Z6.00 F3000 
G1 X387.12 Y404.81 Z6.00 F3000 
G1 X387.07 Y400.22 Z6.00 F3000 
G1 X386.70 Y395.74 Z6.00 F3000 
G1 X386.08 Y391.38 Z6.00 F3000 
G1 X385.15 Y387.10 Z6.00 F3000 
G1 X383.78 Y382.86 Z6.00 F3000 
G1 X381.87 Y378.62 Z6.00 F3000 
G1 X379.32 Y374.33 Z6.00 F3000 
G1 X376.01 Y369.97 Z6.00 F3000 
G1 X371.83 Y365.48 Z6.00 F3000 
G1 X366.69 Y360.83 Z6.00 F3000 
G0 X366.69 Y360.83 Z80.00 F5000 
G0 X178.23 Y273.48 Z80.00 F5000 
G1 X178.23 Y273.48 Z6.00 F3000 
G1 X179.56 Y278.56 Z6.00 F3000 
G1 X181.39 Y283.94 Z6.00 F3000 
G1 X183.64 Y289.63 Z6.00 F3000 
G1 X198.42 Y322.46 Z6.00 F3000 
G1 X204.59 Y337.47 Z6.00 F3000 
G1 X210.47 Y352.87 Z6.00 F3000 
G1 X221.18 Y381.91 Z6.00 F3000 
G1 X226.00 Y394.29 Z6.00 F3000 
G1 X230.92 Y405.33 Z6.00 F3000 
G1 X233.59 Y410.49 Z6.00 F3000 
G1 X236.49 Y415.51 Z6.00 F3000 
G1 X239.69 Y420.42 Z6.00 F3000 
G1 X243.25 Y425.30 Z6.00 F3000 
G1 X247.23 Y430.18 Z6.00 F3000 
G1 X251.58 Y435.06 Z6.00 F3000 
G1 X256.27 Y439.91 Z6.00 F3000 
G1 X261.25 Y444.69 Z6.00 F3000 
G1 X266.46 Y449.38 Z6.00 F3000 
G1 X271.86 Y453.96 Z6.00 F3000 
G1 X283.03 Y462.65 Z6.00 F3000 
G1 X294.39 Y470.54 Z6.00 F3000 
G1 X300.07 Y474.12 Z6.00 F3000 
G1 X305.74 Y477.43 Z6.00 F3000 
G1 X311.37 Y480.44 Z6.00 F3000 
G1 X316.93 Y483.13 Z6.00 F3000 
G1 X322.41 Y485.48 Z6.00 F3000 
G1 X327.78 Y487.45 Z6.00 F3000 
G1 X333.04 Y489.05 Z6.00 F3000 
G1 X338.19 Y490.32 Z6.00 F3000 
G1 X348.18 Y492.12 Z6.00 F3000 
G1 X367.22 Y494.50 Z6.00 F3000 
G1 X376.36 Y495.98 Z6.00 F3000 
G1 X385.05 Y497.77 Z6.00 F3000 
G1 X393.03 Y499.72 Z6.00 F3000 
G1 X400.04 Y501.73 Z6.00 F3000 
G1 X410.71 Y505.43 Z6.00 F3000 
G1 X418.00 Y508.23 Z6.00 F3000 
G1 X420.84 Y509.10 Z6.00 F3000 
G1 X423.23 Y509.48 Z6.00 F3000 
G1 X425.17 Y509.30 Z6.00 F3000 
G1 X425.98 Y508.96 Z6.00 F3000 
G1 X426.68 Y508.43 Z6.00 F3000 
G1 X427.27 Y507.72 Z6.00 F3000 
G1 X427.73 Y506.83 Z6.00 F3000 
G1 X428.21 Y504.55 Z6.00 F3000 
G1 X428.00 Y501.70 Z6.00 F3000 
G1 X426.94 Y498.38 Z6.00 F3000 
G1 X424.91 Y494.70 Z6.00 F3000 
G1 X423.45 Y492.74 Z6.00 F3000 
G1 X421.67 Y490.73 Z6.00 F3000 
G1 X419.53 Y488.66 Z6.00 F3000 
G1 X417.00 Y486.55 Z6.00 F3000 
G1 X414.06 Y484.40 Z6.00 F3000 
G1 X410.68 Y482.23 Z6.00 F3000 
G1 X402.65 Y477.87 Z6.00 F3000 
G1 X393.59 Y473.60 Z6.00 F3000 
G1 X368.72 Y462.86 Z6.00 F3000 
G1 X363.12 Y460.21 Z6.00 F3000 
G1 X358.99 Y457.95 Z6.00 F3000 
G1 X356.28 Y455.97 Z6.00 F3000 
G1 X355.46 Y455.06 Z6.00 F3000 
G1 X354.98 Y454.20 Z6.00 F3000 
G1 X354.85 Y453.39 Z6.00 F3000 
G1 X355.05 Y452.64 Z6.00 F3000 
G1 X355.60 Y451.95 Z6.00 F3000 
G1 X356.50 Y451.32 Z6.00 F3000 
G1 X359.30 Y450.23 Z6.00 F3000 
G1 X363.44 Y449.40 Z6.00 F3000 
G1 X368.92 Y448.82 Z6.00 F3000 
G1 X375.71 Y448.46 Z6.00 F3000 
G1 X383.80 Y448.32 Z6.00 F3000 
G1 X417.27 Y448.41 Z6.00 F3000 
G1 X432.54 Y448.13 Z6.00 F3000 
G1 X450.14 Y447.51 Z6.00 F3000 
G1 X468.95 Y446.61 Z6.00 F3000 
G1 X504.59 Y444.43 Z6.00 F3000 
G1 X518.89 Y443.35 Z6.00 F3000 
G1 X530.49 Y442.22 Z6.00 F3000 
G1 X539.66 Y440.96 Z6.00 F3000 
G1 X546.70 Y439.43 Z6.00 F3000 
G1 X549.51 Y438.55 Z6.00 F3000 
G1 X551.88 Y437.59 Z6.00 F3000 
G1 X553.83 Y436.57 Z6.00 F3000 
G1 X555.40 Y435.51 Z6.00 F3000 
G1 X556.61 Y434.41 Z6.00 F3000 
G1 X557.48 Y433.30 Z6.00 F3000 
G1 X558.04 Y432.19 Z6.00 F3000 
G1 X558.32 Y431.08 Z6.00 F3000 
G1 X558.32 Y430.01 Z6.00 F3000 
G1 X558.03 Y428.96 Z6.00 F3000 
G1 X557.43 Y427.96 Z6.00 F3000 
G1 X556.49 Y427.00 Z6.00 F3000 
G1 X555.18 Y426.10 Z6.00 F3000 
G1 X553.48 Y425.26 Z6.00 F3000 
G1 X551.35 Y424.49 Z6.00 F3000 
G1 X548.78 Y423.80 Z6.00 F3000 
G1 X542.17 Y422.64 Z6.00 F3000 
G1 X533.31 Y421.71 Z6.00 F3000 
G1 X521.84 Y420.92 Z6.00 F3000 
G1 X455.78 Y417.79 Z6.00 F3000 
G1 X443.73 Y417.01 Z6.00 F3000 
G1 X437.56 Y416.15 Z6.00 F3000 
G1 X437.50 Y416.07 Z6.00 F3000 
G1 X437.53 Y416.00 Z6.00 F3000 
G1 X438.63 Y415.73 Z6.00 F3000 
G1 X445.29 Y415.35 Z6.00 F3000 
G1 X457.56 Y415.25 Z6.00 F3000 
G1 X494.61 Y415.67 Z6.00 F3000 
G1 X514.82 Y415.66 Z6.00 F3000 
G1 X532.89 Y415.11 Z6.00 F3000 
G1 X540.41 Y414.55 Z6.00 F3000 
G1 X546.84 Y413.82 Z6.00 F3000 
G1 X552.26 Y412.93 Z6.00 F3000 
G1 X556.73 Y411.93 Z6.00 F3000 
G1 X560.31 Y410.84 Z6.00 F3000 
G1 X563.08 Y409.69 Z6.00 F3000 
G1 X565.09 Y408.52 Z6.00 F3000 
G1 X566.43 Y407.35 Z6.00 F3000 
G1 X567.11 Y406.21 Z6.00 F3000 
G1 X567.18 Y405.65 Z6.00 F3000 
G1 X567.04 Y405.09 Z6.00 F3000 
G1 X566.06 Y403.97 Z6.00 F3000 
G1 X564.02 Y402.84 Z6.00 F3000 
G1 X560.79 Y401.69 Z6.00 F3000 
G1 X556.21 Y400.50 Z6.00 F3000 
G1 X550.15 Y399.26 Z6.00 F3000 
G1 X542.44 Y397.96 Z6.00 F3000 
G1 X522.38 Y395.16 Z6.00 F3000 
G1 X499.05 Y392.32 Z6.00 F3000 
G1 X447.17 Y386.43 Z6.00 F3000 
G1 X444.00 Y385.85 Z6.00 F3000 
G1 X447.85 Y385.75 Z6.00 F3000 
G1 X492.39 Y386.99 Z6.00 F3000 
G1 X511.88 Y387.15 Z6.00 F3000 
G1 X529.58 Y386.75 Z6.00 F3000 
G1 X537.04 Y386.27 Z6.00 F3000 
G1 X543.43 Y385.61 Z6.00 F3000 
G1 X548.76 Y384.80 Z6.00 F3000 
G1 X553.03 Y383.84 Z6.00 F3000 
G1 X556.25 Y382.78 Z6.00 F3000 
G1 X558.42 Y381.62 Z6.00 F3000 
G1 X559.10 Y381.01 Z6.00 F3000 
G1 X559.53 Y380.39 Z6.00 F3000 
G1 X559.70 Y379.75 Z6.00 F3000 
G1 X559.61 Y379.11 Z6.00 F3000 
G1 X559.25 Y378.45 Z6.00 F3000 
G1 X558.64 Y377.80 Z6.00 F3000 
G1 X556.61 Y376.46 Z6.00 F3000 
G1 X553.53 Y375.11 Z6.00 F3000 
G1 X549.37 Y373.74 Z6.00 F3000 
G1 X544.13 Y372.36 Z6.00 F3000 
G1 X537.79 Y370.97 Z6.00 F3000 
G1 X521.79 Y368.18 Z6.00 F3000 
G1 X501.78 Y365.44 Z6.00 F3000 
G1 X480.22 Y362.87 Z6.00 F3000 
G1 X435.40 Y357.92 Z6.00 F3000 
G1 X433.00 Y357.46 Z6.00 F3000 
G1 X433.04 Y357.43 Z6.00 F3000 
G1 X436.51 Y357.37 Z6.00 F3000 
G1 X472.54 Y358.51 Z6.00 F3000 
G1 X500.72 Y359.05 Z6.00 F3000 
G1 X510.35 Y358.87 Z6.00 F3000 
G1 X516.70 Y358.31 Z6.00 F3000 
G1 X518.85 Y357.88 Z6.00 F3000 
G1 X520.43 Y357.34 Z6.00 F3000 
G1 X521.52 Y356.71 Z6.00 F3000 
G1 X522.22 Y355.96 Z6.00 F3000 
G1 X522.58 Y355.11 Z6.00 F3000 
G1 X522.62 Y354.16 Z6.00 F3000 
G1 X522.31 Y353.14 Z6.00 F3000 
G1 X521.65 Y352.06 Z6.00 F3000 
G1 X520.63 Y350.95 Z6.00 F3000 
G1 X519.22 Y349.82 Z6.00 F3000 
G1 X517.43 Y348.69 Z6.00 F3000 
G1 X515.23 Y347.58 Z6.00 F3000 
G1 X512.60 Y346.50 Z6.00 F3000 
G1 X509.39 Y345.44 Z6.00 F3000 
G1 X500.66 Y343.31 Z6.00 F3000 
G1 X487.80 Y341.06 Z6.00 F3000 
G1 X469.58 Y338.56 Z6.00 F3000 
G1 X445.54 Y335.75 Z6.00 F3000 
G1 X350.60 Y325.62 Z6.00 F3000 
G1 X338.85 Y324.10 Z6.00 F3000 
G1 X331.08 Y322.72 Z6.00 F3000 
G1 X325.78 Y321.23 Z6.00 F3000 
G1 X323.60 Y320.37 Z6.00 F3000 
G1 X321.62 Y319.32 Z6.00 F3000 
G1 X319.78 Y318.02 Z6.00 F3000 
G1 X318.05 Y316.37 Z6.00 F3000 
G1 X316.38 Y314.29 Z6.00 F3000 
G1 X314.72 Y311.69 Z6.00 F3000 
G1 X313.04 Y308.49 Z6.00 F3000 
G1 X311.28 Y304.59 Z6.00 F3000 
G1 X307.46 Y294.67 Z6.00 F3000 
G1 X303.41 Y282.66 Z6.00 F3000 
G1 X299.39 Y269.57 Z6.00 F3000 
G1 X289.06 Y233.11 Z6.00 F3000 
G1 X287.38 Y228.23 Z6.00 F3000 
G1 X285.60 Y223.81 Z6.00 F3000 
G1 X283.66 Y219.91 Z6.00 F3000 
G1 X281.51 Y216.58 Z6.00 F3000 
G1 X279.12 Y213.84 Z6.00 F3000 
G1 X276.41 Y211.71 Z6.00 F3000 
G1 X273.31 Y210.20 Z6.00 F3000 
G1 X269.77 Y209.30 Z6.00 F3000 
G1 X265.72 Y209.03 Z6.00 F3000 
G1 X261.09 Y209.37 Z6.00 F3000 
G1 X255.81 Y210.34 Z6.00 F3000 
G1 X249.82 Y211.94 Z6.00 F3000 
G1 X243.10 Y214.15 Z6.00 F3000 
G1 X235.82 Y216.90 Z6.00 F3000 
G1 X228.22 Y220.10 Z6.00 F3000 
G1 X220.52 Y223.66 Z6.00 F3000 
G1 X212.94 Y227.48 Z6.00 F3000 
G1 X205.72 Y231.49 Z6.00 F3000 
G1 X199.06 Y235.58 Z6.00 F3000 
G1 X193.21 Y239.67 Z6.00 F3000 
G1 X188.33 Y243.70 Z6.00 F3000 
G1 X184.42 Y247.68 Z6.00 F3000 
G1 X181.43 Y251.67 Z6.00 F3000 
G1 X179.29 Y255.71 Z6.00 F3000 
G1 X177.96 Y259.87 Z6.00 F3000 
G1 X177.38 Y264.18 Z6.00 F3000 
G1 X177.49 Y268.70 Z6.00 F3000 
G1 X178.23 Y273.48 Z6.00 F3000 
G0 X178.23 Y273.48 Z80.00 F5000 
;FOOTER
; end_gcode
G28 X Y
G0 Z100 				; HOME
G90                             ; absolute positioning
;ENDFOOTER
